This is a log file of Statz made on 2020-12-31 11:18:01

[11:18:01] Enabled Statz!
[11:18:09] Updated database with local data.
[11:18:19] Updated database with local data.
[11:18:29] Updated database with local data.
[11:18:39] Updated database with local data.
[11:18:50] Updated database with local data.
[11:18:59] Updated database with local data.
[11:19:10] Updated database with local data.
[11:19:19] Updated database with local data.
[11:19:30] Updated database with local data.
[11:19:42] Updated database with local data.
[11:19:50] Updated database with local data.
[11:20:00] Updated database with local data.
[11:20:09] Updated database with local data.
[11:20:19] Updated database with local data.
[11:20:30] Updated database with local data.
[11:20:40] Updated database with local data.
[11:20:50] Updated database with local data.
[11:21:00] Updated database with local data.
[11:21:11] Updated database with local data.
[11:21:20] Updated database with local data.
[11:21:30] Updated database with local data.
[11:21:40] Updated database with local data.
[11:21:50] Updated database with local data.
[11:22:00] Updated database with local data.
[11:22:10] Updated database with local data.
[11:22:20] Updated database with local data.
[11:22:30] Updated database with local data.
[11:22:44] Updated database with local data.
[11:22:50] Updated database with local data.
[11:23:00] Updated database with local data.
[11:23:10] Updated database with local data.
[11:23:20] Updated database with local data.
[11:23:32] Updated database with local data.
[11:23:40] Updated database with local data.
[11:23:50] Updated database with local data.
[11:24:00] Updated database with local data.
[11:24:10] Updated database with local data.
[11:24:20] Updated database with local data.
[11:24:30] Updated database with local data.
[11:24:40] Updated database with local data.
[11:24:50] Updated database with local data.
[11:25:00] Updated database with local data.
[11:25:11] Updated database with local data.
[11:25:20] Updated database with local data.
[11:25:30] Updated database with local data.
[11:25:40] Updated database with local data.
[11:25:51] Updated database with local data.
[11:26:00] Updated database with local data.
[11:26:12] Updated database with local data.
[11:26:20] Updated database with local data.
[11:26:31] Updated database with local data.
[11:26:41] Updated database with local data.
[11:26:51] Updated database with local data.
[11:27:01] Updated database with local data.
[11:27:11] Updated database with local data.
[11:27:21] Updated database with local data.
[11:27:30] Updated database with local data.
[11:27:40] Updated database with local data.
[11:27:51] Updated database with local data.
[11:28:01] Updated database with local data.
[11:28:11] Updated database with local data.
[11:28:21] Updated database with local data.
[11:28:31] Updated database with local data.
[11:28:41] Updated database with local data.
[11:28:51] Updated database with local data.
[11:29:01] Updated database with local data.
[11:29:11] Updated database with local data.
[11:29:21] Updated database with local data.
[11:29:31] Updated database with local data.
[11:29:41] Updated database with local data.
[11:29:51] Updated database with local data.
[11:30:01] Updated database with local data.
[11:30:11] Updated database with local data.
[11:30:23] Updated database with local data.
[11:30:31] Updated database with local data.
[11:30:41] Updated database with local data.
[11:30:51] Updated database with local data.
[11:31:01] Updated database with local data.
[11:31:11] Updated database with local data.
[11:31:21] Updated database with local data.
[11:31:31] Updated database with local data.
[11:31:41] Updated database with local data.
[11:31:52] Updated database with local data.
[11:32:01] Updated database with local data.
[11:32:11] Updated database with local data.
[11:32:21] Updated database with local data.
[11:32:31] Updated database with local data.
[11:32:41] Updated database with local data.
[11:32:51] Updated database with local data.
[11:33:01] Updated database with local data.
[11:33:11] Updated database with local data.
[11:33:21] Updated database with local data.
[11:33:31] Updated database with local data.
[11:33:44] Updated database with local data.
[11:33:55] Updated database with local data.
[11:34:01] Updated database with local data.
[11:34:11] Updated database with local data.
[11:34:21] Updated database with local data.
[11:34:31] Updated database with local data.
[11:34:41] Updated database with local data.
[11:34:51] Updated database with local data.
[11:35:01] Updated database with local data.
[11:35:11] Updated database with local data.
[11:35:21] Updated database with local data.
[11:35:31] Updated database with local data.
[11:35:41] Updated database with local data.
[11:35:51] Updated database with local data.
[11:36:01] Updated database with local data.
[11:36:11] Updated database with local data.
[11:36:21] Updated database with local data.
[11:36:31] Updated database with local data.
[11:36:41] Updated database with local data.
[11:36:52] Updated database with local data.
[11:37:01] Updated database with local data.
[11:37:11] Updated database with local data.
[11:37:21] Updated database with local data.
[11:37:31] Updated database with local data.
[11:37:41] Updated database with local data.
[11:37:51] Updated database with local data.
[11:38:01] Updated database with local data.
[11:38:11] Updated database with local data.
[11:38:21] Updated database with local data.
[11:38:31] Updated database with local data.
[11:38:41] Updated database with local data.
[11:38:53] Updated database with local data.
[11:39:01] Updated database with local data.
[11:39:11] Updated database with local data.
[11:39:21] Updated database with local data.
[11:39:31] Updated database with local data.
[11:39:41] Updated database with local data.
[11:39:51] Updated database with local data.
[11:40:01] Updated database with local data.
[11:40:11] Updated database with local data.
[11:40:21] Updated database with local data.
[11:40:31] Updated database with local data.
[11:40:41] Updated database with local data.
[11:40:51] Updated database with local data.
[11:41:01] Updated database with local data.
[11:41:11] Updated database with local data.
[11:41:22] Updated database with local data.
[11:41:31] Updated database with local data.
[11:41:42] Updated database with local data.
[11:41:52] Updated database with local data.
[11:42:02] Updated database with local data.
[11:42:12] Updated database with local data.
[11:42:22] Updated database with local data.
[11:42:32] Updated database with local data.
[11:42:42] Updated database with local data.
[11:42:52] Updated database with local data.
[11:43:02] Updated database with local data.
[11:43:12] Updated database with local data.
[11:43:22] Updated database with local data.
[11:43:32] Updated database with local data.
[11:43:42] Updated database with local data.
[11:43:52] Updated database with local data.
[11:44:02] Updated database with local data.
[11:44:12] Updated database with local data.
[11:44:22] Updated database with local data.
[11:44:32] Updated database with local data.
[11:44:42] Updated database with local data.
[11:44:52] Updated database with local data.
[11:45:02] Updated database with local data.
[11:45:12] Updated database with local data.
[11:45:22] Updated database with local data.
[11:45:34] Updated database with local data.
[11:45:42] Updated database with local data.
[11:45:52] Updated database with local data.
[11:46:02] Updated database with local data.
[11:46:12] Updated database with local data.
[11:46:22] Updated database with local data.
[11:46:32] Updated database with local data.
[11:46:42] Updated database with local data.
[11:46:52] Updated database with local data.
[11:47:03] Updated database with local data.
[11:47:12] Updated database with local data.
[11:47:22] Updated database with local data.
[11:47:32] Updated database with local data.
[11:47:42] Updated database with local data.
[11:47:52] Updated database with local data.
[11:48:02] Updated database with local data.
[11:48:12] Updated database with local data.
[11:48:22] Updated database with local data.
[11:48:32] Updated database with local data.
[11:48:42] Updated database with local data.
[11:48:52] Updated database with local data.
[11:49:02] Updated database with local data.
[11:49:12] Updated database with local data.
[11:49:22] Updated database with local data.
[11:49:32] Updated database with local data.
[11:49:42] Updated database with local data.
[11:49:52] Updated database with local data.
[11:50:03] Updated database with local data.
[11:50:12] Updated database with local data.
[11:50:22] Updated database with local data.
[11:50:32] Updated database with local data.
[11:50:43] Updated database with local data.
[11:50:53] Updated database with local data.
[11:51:02] Updated database with local data.
[11:51:13] Updated database with local data.
[11:51:22] Updated database with local data.
[11:51:32] Updated database with local data.
[11:51:42] Updated database with local data.
[11:51:53] Updated database with local data.
[11:52:03] Updated database with local data.
[11:52:13] Updated database with local data.
[11:52:24] Updated database with local data.
[11:52:32] Updated database with local data.
[11:52:42] Updated database with local data.
[11:52:52] Updated database with local data.
[11:53:02] Updated database with local data.
[11:53:12] Updated database with local data.
[11:53:22] Updated database with local data.
[11:53:33] Updated database with local data.
[11:53:43] Updated database with local data.
[11:53:53] Updated database with local data.
[11:54:02] Updated database with local data.
[11:54:12] Updated database with local data.
[11:54:23] Updated database with local data.
[11:54:32] Updated database with local data.
[11:54:42] Updated database with local data.
[11:54:53] Updated database with local data.
[11:55:02] Updated database with local data.
[11:55:13] Updated database with local data.
[11:55:22] Updated database with local data.
[11:55:33] Updated database with local data.
[11:55:43] Updated database with local data.
[11:55:53] Updated database with local data.
[11:56:03] Updated database with local data.
[11:56:13] Updated database with local data.
[11:56:23] Updated database with local data.
[11:56:33] Updated database with local data.
[11:56:43] Updated database with local data.
[11:56:53] Updated database with local data.
[11:57:03] Updated database with local data.
[11:57:13] Updated database with local data.
[11:57:23] Updated database with local data.
[11:57:33] Updated database with local data.
[11:57:43] Updated database with local data.
[11:57:53] Updated database with local data.
[11:58:03] Updated database with local data.
[11:58:13] Updated database with local data.
[11:58:23] Updated database with local data.
[11:58:33] Updated database with local data.
[11:58:43] Updated database with local data.
[11:58:53] Updated database with local data.
[11:59:03] Updated database with local data.
[11:59:13] Updated database with local data.
[11:59:23] Updated database with local data.
[11:59:33] Updated database with local data.
[11:59:43] Updated database with local data.
[11:59:53] Updated database with local data.
[12:00:03] Updated database with local data.
[12:00:13] Updated database with local data.
[12:00:23] Updated database with local data.
[12:00:33] Updated database with local data.
[12:00:43] Updated database with local data.
[12:00:53] Updated database with local data.
[12:01:03] Updated database with local data.
[12:01:13] Updated database with local data.
[12:01:23] Updated database with local data.
[12:01:33] Updated database with local data.
[12:01:43] Updated database with local data.
[12:01:53] Updated database with local data.
[12:02:03] Updated database with local data.
[12:02:13] Updated database with local data.
[12:02:23] Updated database with local data.
[12:02:33] Updated database with local data.
[12:02:43] Updated database with local data.
[12:02:53] Updated database with local data.
[12:03:03] Updated database with local data.
[12:03:13] Updated database with local data.
[12:03:23] Updated database with local data.
[12:03:33] Updated database with local data.
[12:03:43] Updated database with local data.
[12:03:53] Updated database with local data.
[12:04:03] Updated database with local data.
[12:04:13] Updated database with local data.
[12:04:23] Updated database with local data.
[12:04:33] Updated database with local data.
[12:04:43] Updated database with local data.
[12:04:53] Updated database with local data.
[12:05:03] Updated database with local data.
[12:05:13] Updated database with local data.
[12:05:23] Updated database with local data.
[12:05:33] Updated database with local data.
[12:05:43] Updated database with local data.
[12:05:53] Updated database with local data.
[12:06:03] Updated database with local data.
[12:06:13] Updated database with local data.
[12:06:23] Updated database with local data.
[12:06:33] Updated database with local data.
[12:06:43] Updated database with local data.
[12:06:53] Updated database with local data.
[12:07:03] Updated database with local data.
[12:07:13] Updated database with local data.
[12:07:23] Updated database with local data.
[12:07:33] Updated database with local data.
[12:07:43] Updated database with local data.
[12:07:53] Updated database with local data.
[12:08:03] Updated database with local data.
[12:08:13] Updated database with local data.
[12:08:23] Updated database with local data.
[12:08:33] Updated database with local data.
[12:08:43] Updated database with local data.
[12:08:53] Updated database with local data.
[12:09:03] Updated database with local data.
[12:09:14] Updated database with local data.
[12:09:24] Updated database with local data.
[12:09:34] Updated database with local data.
[12:09:44] Updated database with local data.
[12:09:54] Updated database with local data.
[12:10:04] Updated database with local data.
[12:10:14] Updated database with local data.
[12:10:24] Updated database with local data.
[12:10:34] Updated database with local data.
[12:10:44] Updated database with local data.
[12:10:54] Updated database with local data.
[12:11:04] Updated database with local data.
[12:11:14] Updated database with local data.
[12:11:24] Updated database with local data.
[12:11:34] Updated database with local data.
[12:11:44] Updated database with local data.
[12:11:54] Updated database with local data.
[12:12:04] Updated database with local data.
[12:12:14] Updated database with local data.
[12:12:24] Updated database with local data.
[12:12:34] Updated database with local data.
[12:12:44] Updated database with local data.
[12:12:54] Updated database with local data.
[12:13:04] Updated database with local data.
[12:13:14] Updated database with local data.
[12:13:24] Updated database with local data.
[12:13:34] Updated database with local data.
[12:13:44] Updated database with local data.
[12:13:54] Updated database with local data.
[12:14:04] Updated database with local data.
[12:14:14] Updated database with local data.
[12:14:24] Updated database with local data.
[12:14:34] Updated database with local data.
[12:14:44] Updated database with local data.
[12:14:54] Updated database with local data.
[12:15:04] Updated database with local data.
[12:15:14] Updated database with local data.
[12:15:24] Updated database with local data.
[12:15:34] Updated database with local data.
[12:15:44] Updated database with local data.
[12:15:54] Updated database with local data.
[12:16:04] Updated database with local data.
[12:16:14] Updated database with local data.
[12:16:24] Updated database with local data.
[12:16:34] Updated database with local data.
[12:16:44] Updated database with local data.
[12:16:54] Updated database with local data.
[12:17:04] Updated database with local data.
[12:17:14] Updated database with local data.
[12:17:24] Updated database with local data.
[12:17:34] Updated database with local data.
[12:17:44] Updated database with local data.
[12:17:54] Updated database with local data.
[12:18:04] Updated database with local data.
[12:18:14] Updated database with local data.
[12:18:24] Updated database with local data.
[12:18:34] Updated database with local data.
[12:18:44] Updated database with local data.
[12:18:54] Updated database with local data.
[12:19:04] Updated database with local data.
[12:19:14] Updated database with local data.
[12:19:24] Updated database with local data.
[12:19:34] Updated database with local data.
[12:19:44] Updated database with local data.
[12:19:54] Updated database with local data.
[12:20:04] Updated database with local data.
[12:20:14] Updated database with local data.
[12:20:24] Updated database with local data.
[12:20:34] Updated database with local data.
[12:20:44] Updated database with local data.
[12:20:54] Updated database with local data.
[12:21:04] Updated database with local data.
[12:21:14] Updated database with local data.
[12:21:25] Updated database with local data.
[12:21:35] Updated database with local data.
[12:21:45] Updated database with local data.
[12:21:55] Updated database with local data.
[12:22:05] Updated database with local data.
[12:22:15] Updated database with local data.
[12:22:25] Updated database with local data.
[12:22:35] Updated database with local data.
[12:22:45] Updated database with local data.
[12:22:55] Updated database with local data.
[12:23:05] Updated database with local data.
[12:23:15] Updated database with local data.
[12:23:25] Updated database with local data.
[12:23:35] Updated database with local data.
[12:23:45] Updated database with local data.
[12:23:55] Updated database with local data.
[12:24:05] Updated database with local data.
[12:24:15] Updated database with local data.
[12:24:25] Updated database with local data.
[12:24:35] Updated database with local data.
[12:24:45] Updated database with local data.
[12:24:55] Updated database with local data.
[12:25:05] Updated database with local data.
[12:25:15] Updated database with local data.
[12:25:25] Updated database with local data.
[12:25:35] Updated database with local data.
[12:25:45] Updated database with local data.
[12:25:55] Updated database with local data.
[12:26:05] Updated database with local data.
[12:26:15] Updated database with local data.
[12:26:25] Updated database with local data.
[12:26:35] Updated database with local data.
[12:26:45] Updated database with local data.
[12:26:55] Updated database with local data.
[12:27:05] Updated database with local data.
[12:27:15] Updated database with local data.
[12:27:25] Updated database with local data.
[12:27:35] Updated database with local data.
[12:27:45] Updated database with local data.
[12:27:55] Updated database with local data.
[12:28:05] Updated database with local data.
[12:28:15] Updated database with local data.
[12:28:25] Updated database with local data.
[12:28:35] Updated database with local data.
[12:28:45] Updated database with local data.
[12:28:55] Updated database with local data.
[12:29:05] Updated database with local data.
[12:29:15] Updated database with local data.
[12:29:25] Updated database with local data.
[12:29:35] Updated database with local data.
[12:29:45] Updated database with local data.
[12:29:55] Updated database with local data.
[12:30:07] Updated database with local data.
[12:30:15] Updated database with local data.
[12:30:25] Updated database with local data.
[12:30:35] Updated database with local data.
[12:30:45] Updated database with local data.
[12:30:55] Updated database with local data.
[12:31:06] Updated database with local data.
[12:31:15] Updated database with local data.
[12:31:26] Updated database with local data.
[12:31:36] Updated database with local data.
[12:31:46] Updated database with local data.
[12:31:56] Updated database with local data.
[12:32:06] Updated database with local data.
[12:32:15] Updated database with local data.
[12:32:25] Updated database with local data.
[12:32:35] Updated database with local data.
[12:32:46] Updated database with local data.
[12:32:56] Updated database with local data.
[12:33:06] Updated database with local data.
[12:33:16] Updated database with local data.
[12:33:26] Updated database with local data.
[12:33:36] Updated database with local data.
[12:33:46] Updated database with local data.
[12:33:56] Updated database with local data.
[12:34:07] Updated database with local data.
[12:34:16] Updated database with local data.
[12:34:26] Updated database with local data.
[12:34:36] Updated database with local data.
[12:34:46] Updated database with local data.
[12:34:56] Updated database with local data.
[12:35:06] Updated database with local data.
[12:35:16] Updated database with local data.
[12:35:26] Updated database with local data.
[12:35:36] Updated database with local data.
[12:35:46] Updated database with local data.
[12:35:56] Updated database with local data.
[12:36:06] Updated database with local data.
[12:36:16] Updated database with local data.
[12:36:26] Updated database with local data.
[12:36:36] Updated database with local data.
[12:36:46] Updated database with local data.
[12:36:56] Updated database with local data.
[12:37:06] Updated database with local data.
[12:37:16] Updated database with local data.
[12:37:26] Updated database with local data.
[12:37:36] Updated database with local data.
[12:37:46] Updated database with local data.
[12:37:56] Updated database with local data.
[12:38:07] Updated database with local data.
[12:38:16] Updated database with local data.
[12:38:26] Updated database with local data.
[12:38:36] Updated database with local data.
[12:38:46] Updated database with local data.
[12:38:56] Updated database with local data.
[12:39:07] Updated database with local data.
[12:39:16] Updated database with local data.
[12:39:26] Updated database with local data.
[12:39:36] Updated database with local data.
[12:39:46] Updated database with local data.
[12:39:56] Updated database with local data.
[12:40:07] Updated database with local data.
[12:40:16] Updated database with local data.
[12:40:26] Updated database with local data.
[12:40:37] Updated database with local data.
[12:40:47] Updated database with local data.
[12:40:57] Updated database with local data.
[12:41:07] Updated database with local data.
[12:41:17] Updated database with local data.
[12:41:27] Updated database with local data.
[12:41:37] Updated database with local data.
[12:41:47] Updated database with local data.
[12:41:57] Updated database with local data.
[12:42:07] Updated database with local data.
[12:42:17] Updated database with local data.
[12:42:27] Updated database with local data.
[12:42:37] Updated database with local data.
[12:42:47] Updated database with local data.
[12:42:57] Updated database with local data.
[12:43:08] Updated database with local data.
[12:43:17] Updated database with local data.
[12:43:27] Updated database with local data.
[12:43:37] Updated database with local data.
[12:43:47] Updated database with local data.
[12:43:57] Updated database with local data.
[12:44:07] Updated database with local data.
[12:44:17] Updated database with local data.
[12:44:27] Updated database with local data.
[12:44:37] Updated database with local data.
[12:44:47] Updated database with local data.
[12:44:57] Updated database with local data.
[12:45:07] Updated database with local data.
[12:45:17] Updated database with local data.
[12:45:27] Updated database with local data.
[12:45:37] Updated database with local data.
[12:45:47] Updated database with local data.
[12:45:57] Updated database with local data.
[12:46:07] Updated database with local data.
[12:46:17] Updated database with local data.
[12:46:27] Updated database with local data.
[12:46:37] Updated database with local data.
[12:46:47] Updated database with local data.
[12:46:57] Updated database with local data.
[12:47:07] Updated database with local data.
[12:47:17] Updated database with local data.
[12:47:27] Updated database with local data.
[12:47:38] Updated database with local data.
[12:47:48] Updated database with local data.
[12:47:58] Updated database with local data.
[12:48:08] Updated database with local data.
[12:48:18] Updated database with local data.
[12:48:28] Updated database with local data.
[12:48:38] Updated database with local data.
[12:48:48] Updated database with local data.
[12:48:58] Updated database with local data.
[12:49:08] Updated database with local data.
[12:49:18] Updated database with local data.
[12:49:28] Updated database with local data.
[12:49:38] Updated database with local data.
[12:49:48] Updated database with local data.
[12:49:58] Updated database with local data.
[12:50:08] Updated database with local data.
[12:50:18] Updated database with local data.
[12:50:28] Updated database with local data.
[12:50:38] Updated database with local data.
[12:50:48] Updated database with local data.
[12:50:58] Updated database with local data.
[12:51:09] Updated database with local data.
[12:51:18] Updated database with local data.
[12:51:28] Updated database with local data.
[12:51:38] Updated database with local data.
[12:51:48] Updated database with local data.
[12:51:58] Updated database with local data.
[12:52:08] Updated database with local data.
[12:52:18] Updated database with local data.
[12:52:28] Updated database with local data.
[12:52:38] Updated database with local data.
[12:52:48] Updated database with local data.
[12:52:58] Updated database with local data.
[12:53:10] Updated database with local data.
[12:53:18] Updated database with local data.
[12:53:28] Updated database with local data.
[12:53:38] Updated database with local data.
[12:53:48] Updated database with local data.
[12:53:58] Updated database with local data.
[12:54:09] Updated database with local data.
[12:54:18] Updated database with local data.
[12:54:28] Updated database with local data.
[12:54:38] Updated database with local data.
[12:54:48] Updated database with local data.
[12:54:58] Updated database with local data.
[12:55:09] Updated database with local data.
[12:55:19] Updated database with local data.
[12:55:29] Updated database with local data.
[12:55:39] Updated database with local data.
[12:55:49] Updated database with local data.
[12:55:59] Updated database with local data.
[12:56:09] Updated database with local data.
[12:56:19] Updated database with local data.
[12:56:29] Updated database with local data.
[12:56:39] Updated database with local data.
[12:56:49] Updated database with local data.
[12:56:59] Updated database with local data.
[12:57:09] Updated database with local data.
[12:57:19] Updated database with local data.
[12:57:29] Updated database with local data.
[12:57:39] Updated database with local data.
[12:57:49] Updated database with local data.
[12:57:59] Updated database with local data.
[12:58:09] Updated database with local data.
[12:58:19] Updated database with local data.
[12:58:29] Updated database with local data.
[12:58:39] Updated database with local data.
[12:58:50] Updated database with local data.
[12:58:59] Updated database with local data.
[12:59:00] Disabled Statz!
[12:59:00] Updated database with local data.
