This is a log file of Statz made on 2021-01-01 16:40:31

[16:40:31] Enabled Statz!
[16:40:39] Updated database with local data.
[16:40:41] Updated database with local data.
[16:40:43] Updated database with local data.
[16:40:53] Updated database with local data.
[16:41:03] Updated database with local data.
[16:41:14] Updated database with local data.
[16:41:23] Updated database with local data.
[16:41:33] Updated database with local data.
[16:41:43] Updated database with local data.
[16:41:53] Updated database with local data.
[16:42:03] Updated database with local data.
[16:42:13] Updated database with local data.
[16:42:23] Updated database with local data.
[16:42:33] Updated database with local data.
[16:42:43] Updated database with local data.
[16:42:53] Updated database with local data.
[16:43:03] Updated database with local data.
[16:43:13] Updated database with local data.
[16:43:23] Updated database with local data.
[16:43:33] Updated database with local data.
[16:43:43] Updated database with local data.
[16:43:53] Updated database with local data.
[16:44:03] Updated database with local data.
[16:44:13] Updated database with local data.
[16:44:23] Updated database with local data.
[16:44:34] Updated database with local data.
[16:44:43] Updated database with local data.
[16:44:53] Updated database with local data.
[16:45:03] Updated database with local data.
[16:45:13] Updated database with local data.
[16:45:23] Updated database with local data.
[16:45:33] Updated database with local data.
[16:45:43] Updated database with local data.
[16:45:53] Updated database with local data.
[16:46:03] Updated database with local data.
[16:46:13] Updated database with local data.
[16:46:23] Updated database with local data.
[16:46:33] Updated database with local data.
[16:46:43] Updated database with local data.
[16:46:53] Updated database with local data.
[16:47:03] Updated database with local data.
[16:47:13] Updated database with local data.
[16:47:23] Updated database with local data.
[16:47:33] Updated database with local data.
[16:47:43] Updated database with local data.
[16:47:53] Updated database with local data.
[16:48:03] Updated database with local data.
[16:48:13] Updated database with local data.
[16:48:23] Updated database with local data.
[16:48:33] Updated database with local data.
[16:48:43] Updated database with local data.
[16:48:53] Updated database with local data.
[16:49:03] Updated database with local data.
[16:49:13] Updated database with local data.
[16:49:23] Updated database with local data.
[16:49:33] Updated database with local data.
[16:49:43] Updated database with local data.
[16:49:53] Updated database with local data.
[16:50:03] Updated database with local data.
[16:50:13] Updated database with local data.
[16:50:23] Updated database with local data.
[16:50:33] Updated database with local data.
[16:50:45] Updated database with local data.
[16:50:53] Updated database with local data.
[16:51:03] Updated database with local data.
[16:51:13] Updated database with local data.
[16:51:23] Updated database with local data.
[16:51:33] Updated database with local data.
[16:51:43] Updated database with local data.
[16:51:53] Updated database with local data.
[16:52:03] Updated database with local data.
[16:52:13] Updated database with local data.
[16:52:23] Updated database with local data.
[16:52:33] Updated database with local data.
[16:52:43] Updated database with local data.
[16:52:53] Updated database with local data.
[16:53:03] Updated database with local data.
[16:53:13] Updated database with local data.
[16:53:23] Updated database with local data.
[16:53:33] Updated database with local data.
[16:53:43] Updated database with local data.
[16:53:53] Updated database with local data.
[16:54:03] Updated database with local data.
[16:54:13] Updated database with local data.
[16:54:23] Updated database with local data.
[16:54:33] Updated database with local data.
[16:54:43] Updated database with local data.
[16:54:53] Updated database with local data.
[16:55:03] Updated database with local data.
[16:55:13] Updated database with local data.
[16:55:23] Updated database with local data.
[16:55:33] Updated database with local data.
[16:55:43] Updated database with local data.
[16:55:53] Updated database with local data.
[16:56:04] Updated database with local data.
[16:56:14] Updated database with local data.
[16:56:24] Updated database with local data.
[16:56:33] Updated database with local data.
[16:56:43] Updated database with local data.
[16:56:54] Updated database with local data.
[16:57:03] Updated database with local data.
[16:57:13] Updated database with local data.
[16:57:23] Updated database with local data.
[16:57:33] Updated database with local data.
[16:57:43] Updated database with local data.
[16:57:53] Updated database with local data.
[16:58:03] Updated database with local data.
[16:58:13] Updated database with local data.
[16:58:23] Updated database with local data.
[16:58:34] Updated database with local data.
[16:58:44] Updated database with local data.
[16:58:54] Updated database with local data.
[16:59:04] Updated database with local data.
[16:59:15] Updated database with local data.
[16:59:24] Updated database with local data.
[16:59:34] Updated database with local data.
[16:59:43] Updated database with local data.
[16:59:54] Updated database with local data.
[17:00:04] Updated database with local data.
[17:00:14] Updated database with local data.
[17:00:24] Updated database with local data.
[17:00:34] Updated database with local data.
[17:00:44] Updated database with local data.
[17:00:58] Updated database with local data.
[17:01:04] Updated database with local data.
[17:01:13] Updated database with local data.
[17:01:24] Updated database with local data.
[17:01:34] Updated database with local data.
[17:01:43] Updated database with local data.
[17:01:55] Updated database with local data.
[17:02:04] Updated database with local data.
[17:02:14] Updated database with local data.
[17:02:24] Updated database with local data.
[17:02:34] Updated database with local data.
[17:02:44] Updated database with local data.
[17:02:54] Updated database with local data.
[17:03:04] Updated database with local data.
[17:03:14] Updated database with local data.
[17:03:24] Updated database with local data.
[17:03:34] Updated database with local data.
[17:03:44] Updated database with local data.
[17:03:54] Updated database with local data.
[17:04:04] Updated database with local data.
[17:04:14] Updated database with local data.
[17:04:24] Updated database with local data.
[17:04:34] Updated database with local data.
[17:04:44] Updated database with local data.
[17:04:54] Updated database with local data.
[17:05:04] Updated database with local data.
[17:05:14] Updated database with local data.
[17:05:24] Updated database with local data.
[17:05:38] Updated database with local data.
[17:05:44] Updated database with local data.
[17:05:54] Updated database with local data.
[17:06:04] Updated database with local data.
[17:06:15] Updated database with local data.
[17:06:24] Updated database with local data.
[17:06:34] Updated database with local data.
[17:06:44] Updated database with local data.
[17:06:54] Updated database with local data.
[17:07:04] Updated database with local data.
[17:07:14] Updated database with local data.
[17:07:24] Updated database with local data.
[17:07:34] Updated database with local data.
[17:07:44] Updated database with local data.
[17:07:54] Updated database with local data.
[17:08:04] Updated database with local data.
[17:08:14] Updated database with local data.
[17:08:24] Updated database with local data.
[17:08:34] Updated database with local data.
[17:08:44] Updated database with local data.
[17:08:54] Updated database with local data.
[17:09:04] Updated database with local data.
[17:09:14] Updated database with local data.
[17:09:24] Updated database with local data.
[17:09:34] Updated database with local data.
[17:09:44] Updated database with local data.
[17:09:54] Updated database with local data.
[17:10:04] Updated database with local data.
[17:10:14] Updated database with local data.
[17:10:24] Updated database with local data.
[17:10:34] Updated database with local data.
[17:10:44] Updated database with local data.
[17:10:54] Updated database with local data.
[17:11:04] Updated database with local data.
[17:11:14] Updated database with local data.
[17:11:25] Updated database with local data.
[17:11:35] Updated database with local data.
[17:11:44] Updated database with local data.
[17:11:54] Updated database with local data.
[17:12:04] Updated database with local data.
[17:12:14] Updated database with local data.
[17:12:24] Updated database with local data.
[17:12:35] Updated database with local data.
[17:12:44] Updated database with local data.
[17:12:54] Updated database with local data.
[17:13:04] Updated database with local data.
[17:13:14] Updated database with local data.
[17:13:24] Updated database with local data.
[17:13:34] Updated database with local data.
[17:13:44] Updated database with local data.
[17:13:54] Updated database with local data.
[17:14:04] Updated database with local data.
[17:14:14] Updated database with local data.
[17:14:24] Updated database with local data.
[17:14:34] Updated database with local data.
[17:14:44] Updated database with local data.
[17:14:54] Updated database with local data.
[17:15:04] Updated database with local data.
[17:15:14] Updated database with local data.
[17:15:24] Updated database with local data.
[17:15:34] Updated database with local data.
[17:15:44] Updated database with local data.
[17:15:54] Updated database with local data.
[17:16:04] Updated database with local data.
[17:16:14] Updated database with local data.
[17:16:24] Updated database with local data.
[17:16:34] Updated database with local data.
[17:16:44] Updated database with local data.
[17:16:54] Updated database with local data.
[17:17:04] Updated database with local data.
[17:17:14] Updated database with local data.
[17:17:24] Updated database with local data.
[17:17:34] Updated database with local data.
[17:17:44] Updated database with local data.
[17:17:54] Updated database with local data.
[17:18:04] Updated database with local data.
[17:18:14] Updated database with local data.
[17:18:24] Updated database with local data.
[17:18:34] Updated database with local data.
[17:18:45] Updated database with local data.
[17:18:55] Updated database with local data.
[17:19:04] Updated database with local data.
[17:19:14] Updated database with local data.
[17:19:24] Updated database with local data.
[17:19:34] Updated database with local data.
[17:19:44] Updated database with local data.
[17:19:54] Updated database with local data.
[17:20:04] Updated database with local data.
[17:20:14] Updated database with local data.
[17:20:25] Updated database with local data.
[17:20:35] Updated database with local data.
[17:20:44] Updated database with local data.
[17:20:55] Updated database with local data.
[17:21:04] Updated database with local data.
[17:21:15] Updated database with local data.
[17:21:24] Updated database with local data.
[17:21:34] Updated database with local data.
[17:21:44] Updated database with local data.
[17:21:54] Updated database with local data.
[17:22:04] Updated database with local data.
[17:22:14] Updated database with local data.
[17:22:24] Updated database with local data.
[17:22:36] Updated database with local data.
[17:22:44] Updated database with local data.
[17:22:54] Updated database with local data.
[17:23:04] Updated database with local data.
[17:23:14] Updated database with local data.
[17:23:24] Updated database with local data.
[17:23:34] Updated database with local data.
[17:23:44] Updated database with local data.
[17:23:54] Updated database with local data.
[17:24:04] Updated database with local data.
[17:24:14] Updated database with local data.
[17:24:24] Updated database with local data.
[17:24:34] Updated database with local data.
[17:24:44] Updated database with local data.
[17:24:54] Updated database with local data.
[17:25:04] Updated database with local data.
[17:25:14] Updated database with local data.
[17:25:24] Updated database with local data.
[17:25:34] Updated database with local data.
[17:25:44] Updated database with local data.
[17:25:54] Updated database with local data.
[17:26:06] Updated database with local data.
[17:26:14] Updated database with local data.
[17:26:24] Updated database with local data.
[17:26:34] Updated database with local data.
[17:26:44] Updated database with local data.
[17:26:54] Updated database with local data.
[17:27:04] Updated database with local data.
[17:27:14] Updated database with local data.
[17:27:24] Updated database with local data.
[17:27:36] Updated database with local data.
[17:27:44] Updated database with local data.
[17:27:54] Updated database with local data.
[17:28:04] Updated database with local data.
[17:28:14] Updated database with local data.
[17:28:24] Updated database with local data.
[17:28:34] Updated database with local data.
[17:28:47] Updated database with local data.
[17:28:54] Updated database with local data.
[17:29:04] Updated database with local data.
[17:29:14] Updated database with local data.
[17:29:24] Updated database with local data.
[17:29:34] Updated database with local data.
[17:29:44] Updated database with local data.
[17:29:55] Updated database with local data.
[17:30:04] Updated database with local data.
[17:30:14] Updated database with local data.
[17:30:24] Updated database with local data.
[17:30:34] Updated database with local data.
[17:30:44] Updated database with local data.
[17:30:54] Updated database with local data.
[17:31:04] Updated database with local data.
[17:31:14] Updated database with local data.
[17:31:25] Updated database with local data.
[17:31:34] Updated database with local data.
[17:31:46] Updated database with local data.
[17:31:54] Updated database with local data.
[17:32:04] Updated database with local data.
[17:32:14] Updated database with local data.
[17:32:24] Updated database with local data.
[17:32:35] Updated database with local data.
[17:32:44] Updated database with local data.
[17:32:55] Updated database with local data.
[17:33:04] Updated database with local data.
[17:33:14] Updated database with local data.
[17:33:24] Updated database with local data.
[17:33:34] Updated database with local data.
[17:33:44] Updated database with local data.
[17:33:54] Updated database with local data.
[17:34:04] Updated database with local data.
[17:34:14] Updated database with local data.
[17:34:24] Updated database with local data.
[17:34:35] Updated database with local data.
[17:34:44] Updated database with local data.
[17:34:54] Updated database with local data.
[17:35:04] Updated database with local data.
[17:35:14] Updated database with local data.
[17:35:24] Updated database with local data.
[17:35:35] Updated database with local data.
[17:35:44] Updated database with local data.
[17:35:54] Updated database with local data.
[17:36:05] Updated database with local data.
[17:36:14] Updated database with local data.
[17:36:24] Updated database with local data.
[17:36:34] Updated database with local data.
[17:36:44] Updated database with local data.
[17:36:55] Updated database with local data.
[17:37:04] Updated database with local data.
[17:37:14] Updated database with local data.
[17:37:24] Updated database with local data.
[17:37:35] Updated database with local data.
[17:37:45] Updated database with local data.
[17:37:54] Updated database with local data.
[17:38:04] Updated database with local data.
[17:38:14] Updated database with local data.
[17:38:24] Updated database with local data.
[17:38:34] Updated database with local data.
[17:38:45] Updated database with local data.
[17:38:55] Updated database with local data.
[17:39:04] Updated database with local data.
[17:39:14] Updated database with local data.
[17:39:24] Updated database with local data.
[17:39:35] Updated database with local data.
[17:39:44] Updated database with local data.
[17:39:54] Updated database with local data.
[17:40:04] Updated database with local data.
[17:40:14] Updated database with local data.
[17:40:24] Updated database with local data.
[17:40:35] Updated database with local data.
[17:40:44] Updated database with local data.
[17:40:54] Updated database with local data.
[17:41:04] Updated database with local data.
[17:41:14] Updated database with local data.
[17:41:24] Updated database with local data.
[17:41:35] Updated database with local data.
[17:41:44] Updated database with local data.
[17:41:54] Updated database with local data.
[17:42:04] Updated database with local data.
[17:42:14] Updated database with local data.
[17:42:24] Updated database with local data.
[17:42:35] Updated database with local data.
[17:42:44] Updated database with local data.
[17:42:54] Updated database with local data.
[17:43:04] Updated database with local data.
[17:43:14] Updated database with local data.
[17:43:24] Updated database with local data.
[17:43:35] Updated database with local data.
[17:43:44] Updated database with local data.
[17:43:54] Updated database with local data.
[17:44:04] Updated database with local data.
[17:44:14] Updated database with local data.
[17:44:24] Updated database with local data.
[17:44:35] Updated database with local data.
[17:44:44] Updated database with local data.
[17:44:54] Updated database with local data.
[17:45:04] Updated database with local data.
[17:45:14] Updated database with local data.
[17:45:24] Updated database with local data.
[17:45:35] Updated database with local data.
[17:45:44] Updated database with local data.
[17:45:54] Updated database with local data.
[17:46:04] Updated database with local data.
[17:46:14] Updated database with local data.
[17:46:24] Updated database with local data.
[17:46:35] Updated database with local data.
[17:46:44] Updated database with local data.
[17:46:54] Updated database with local data.
[17:47:04] Updated database with local data.
[17:47:14] Updated database with local data.
[17:47:24] Updated database with local data.
[17:47:35] Updated database with local data.
[17:47:44] Updated database with local data.
[17:47:54] Updated database with local data.
[17:48:04] Updated database with local data.
[17:48:14] Updated database with local data.
[17:48:24] Updated database with local data.
[17:48:35] Updated database with local data.
[17:48:44] Updated database with local data.
[17:48:54] Updated database with local data.
[17:49:04] Updated database with local data.
[17:49:14] Updated database with local data.
[17:49:24] Updated database with local data.
[17:49:35] Updated database with local data.
[17:49:44] Updated database with local data.
[17:49:54] Updated database with local data.
[17:50:04] Updated database with local data.
[17:50:14] Updated database with local data.
[17:50:24] Updated database with local data.
[17:50:35] Updated database with local data.
[17:50:44] Updated database with local data.
[17:50:54] Updated database with local data.
[17:51:04] Updated database with local data.
[17:51:14] Updated database with local data.
[17:51:24] Updated database with local data.
[17:51:35] Updated database with local data.
[17:51:45] Updated database with local data.
[17:51:55] Updated database with local data.
[17:52:05] Updated database with local data.
[17:52:15] Updated database with local data.
[17:52:25] Updated database with local data.
[17:52:35] Updated database with local data.
[17:52:45] Updated database with local data.
[17:52:55] Updated database with local data.
[17:53:05] Updated database with local data.
[17:53:15] Updated database with local data.
[17:53:25] Updated database with local data.
[17:53:35] Updated database with local data.
[17:53:45] Updated database with local data.
[17:53:55] Updated database with local data.
[17:54:05] Updated database with local data.
[17:54:15] Updated database with local data.
[17:54:25] Updated database with local data.
[17:54:35] Updated database with local data.
[17:54:45] Updated database with local data.
[17:54:55] Updated database with local data.
[17:55:05] Updated database with local data.
[17:55:15] Updated database with local data.
[17:55:25] Updated database with local data.
[17:55:35] Updated database with local data.
[17:55:45] Updated database with local data.
[17:55:55] Updated database with local data.
[17:56:05] Updated database with local data.
[17:56:15] Updated database with local data.
[17:56:25] Updated database with local data.
[17:56:35] Updated database with local data.
[17:56:45] Updated database with local data.
[17:56:55] Updated database with local data.
[17:57:05] Updated database with local data.
[17:57:15] Updated database with local data.
[17:57:25] Updated database with local data.
[17:57:35] Updated database with local data.
[17:57:45] Updated database with local data.
[17:57:55] Updated database with local data.
[17:58:05] Updated database with local data.
[17:58:15] Updated database with local data.
[17:58:25] Updated database with local data.
[17:58:35] Updated database with local data.
[17:58:45] Updated database with local data.
[17:58:55] Updated database with local data.
[17:59:05] Updated database with local data.
[17:59:15] Updated database with local data.
[17:59:25] Updated database with local data.
[17:59:35] Updated database with local data.
[17:59:45] Updated database with local data.
[17:59:55] Updated database with local data.
[18:00:05] Updated database with local data.
[18:00:15] Updated database with local data.
[18:00:25] Updated database with local data.
[18:00:35] Updated database with local data.
[18:00:45] Updated database with local data.
[18:00:55] Updated database with local data.
[18:01:05] Updated database with local data.
[18:01:15] Updated database with local data.
[18:01:25] Updated database with local data.
[18:01:35] Updated database with local data.
[18:01:45] Updated database with local data.
[18:01:55] Updated database with local data.
[18:02:05] Updated database with local data.
[18:02:15] Updated database with local data.
[18:02:25] Updated database with local data.
[18:02:35] Updated database with local data.
[18:02:45] Updated database with local data.
[18:02:55] Updated database with local data.
[18:03:05] Updated database with local data.
[18:03:15] Updated database with local data.
[18:03:25] Updated database with local data.
[18:03:35] Updated database with local data.
[18:03:45] Updated database with local data.
[18:03:55] Updated database with local data.
[18:04:05] Updated database with local data.
[18:04:15] Updated database with local data.
[18:04:25] Updated database with local data.
[18:04:35] Updated database with local data.
[18:04:45] Updated database with local data.
[18:04:55] Updated database with local data.
[18:05:05] Updated database with local data.
[18:05:15] Updated database with local data.
[18:05:25] Updated database with local data.
[18:05:35] Updated database with local data.
[18:05:45] Updated database with local data.
[18:05:55] Updated database with local data.
[18:06:05] Updated database with local data.
[18:06:15] Updated database with local data.
[18:06:25] Updated database with local data.
[18:06:35] Updated database with local data.
[18:06:45] Updated database with local data.
[18:06:55] Updated database with local data.
[18:07:05] Updated database with local data.
[18:07:15] Updated database with local data.
[18:07:25] Updated database with local data.
[18:07:35] Updated database with local data.
[18:07:45] Updated database with local data.
[18:07:55] Updated database with local data.
[18:08:05] Updated database with local data.
[18:08:15] Updated database with local data.
[18:08:25] Updated database with local data.
[18:08:35] Updated database with local data.
[18:08:45] Updated database with local data.
[18:08:55] Updated database with local data.
[18:09:05] Updated database with local data.
[18:09:15] Updated database with local data.
[18:09:25] Updated database with local data.
[18:09:35] Updated database with local data.
[18:09:45] Updated database with local data.
[18:09:55] Updated database with local data.
[18:10:05] Updated database with local data.
[18:10:15] Updated database with local data.
[18:10:25] Updated database with local data.
[18:10:35] Updated database with local data.
[18:10:45] Updated database with local data.
[18:10:55] Updated database with local data.
[18:11:05] Updated database with local data.
[18:11:15] Updated database with local data.
[18:11:25] Updated database with local data.
[18:11:35] Updated database with local data.
[18:11:45] Updated database with local data.
[18:11:55] Updated database with local data.
[18:12:05] Updated database with local data.
[18:12:15] Updated database with local data.
[18:12:25] Updated database with local data.
[18:12:36] Updated database with local data.
[18:12:45] Updated database with local data.
[18:12:55] Updated database with local data.
[18:13:05] Updated database with local data.
[18:13:15] Updated database with local data.
[18:13:25] Updated database with local data.
[18:13:35] Updated database with local data.
[18:13:45] Updated database with local data.
[18:13:55] Updated database with local data.
[18:14:05] Updated database with local data.
[18:14:15] Updated database with local data.
[18:14:25] Updated database with local data.
[18:14:35] Updated database with local data.
[18:14:45] Updated database with local data.
[18:14:55] Updated database with local data.
[18:15:05] Updated database with local data.
[18:15:15] Updated database with local data.
[18:15:25] Updated database with local data.
[18:15:35] Updated database with local data.
[18:15:45] Updated database with local data.
[18:15:55] Updated database with local data.
[18:16:05] Updated database with local data.
[18:16:15] Updated database with local data.
[18:16:25] Updated database with local data.
[18:16:35] Updated database with local data.
[18:16:45] Updated database with local data.
[18:16:55] Updated database with local data.
[18:17:05] Updated database with local data.
[18:17:15] Updated database with local data.
[18:17:25] Updated database with local data.
[18:17:35] Updated database with local data.
[18:17:45] Updated database with local data.
[18:17:55] Updated database with local data.
[18:18:05] Updated database with local data.
[18:18:15] Updated database with local data.
[18:18:25] Updated database with local data.
[18:18:35] Updated database with local data.
[18:18:45] Updated database with local data.
[18:18:55] Updated database with local data.
[18:19:05] Updated database with local data.
[18:19:15] Updated database with local data.
[18:19:25] Updated database with local data.
[18:19:35] Updated database with local data.
[18:19:45] Updated database with local data.
[18:19:55] Updated database with local data.
[18:20:05] Updated database with local data.
[18:20:15] Updated database with local data.
[18:20:25] Updated database with local data.
[18:20:35] Updated database with local data.
[18:20:45] Updated database with local data.
[18:20:55] Updated database with local data.
[18:21:05] Updated database with local data.
[18:21:15] Updated database with local data.
[18:21:25] Updated database with local data.
[18:21:35] Updated database with local data.
[18:21:45] Updated database with local data.
[18:21:55] Updated database with local data.
[18:22:05] Updated database with local data.
[18:22:15] Updated database with local data.
[18:22:25] Updated database with local data.
[18:22:35] Updated database with local data.
[18:22:45] Updated database with local data.
[18:22:55] Updated database with local data.
[18:23:05] Updated database with local data.
[18:23:15] Updated database with local data.
[18:23:25] Updated database with local data.
[18:23:35] Updated database with local data.
[18:23:46] Updated database with local data.
[18:23:55] Updated database with local data.
[18:24:05] Updated database with local data.
[18:24:15] Updated database with local data.
[18:24:25] Updated database with local data.
[18:24:35] Updated database with local data.
[18:24:45] Updated database with local data.
[18:24:55] Updated database with local data.
[18:25:05] Updated database with local data.
[18:25:15] Updated database with local data.
[18:25:25] Updated database with local data.
[18:25:35] Updated database with local data.
[18:25:45] Updated database with local data.
[18:25:55] Updated database with local data.
[18:26:05] Updated database with local data.
[18:26:15] Updated database with local data.
[18:26:26] Updated database with local data.
[18:26:35] Updated database with local data.
[18:26:45] Updated database with local data.
[18:26:55] Updated database with local data.
[18:27:05] Updated database with local data.
[18:27:15] Updated database with local data.
[18:27:25] Updated database with local data.
[18:27:35] Updated database with local data.
[18:27:45] Updated database with local data.
[18:27:55] Updated database with local data.
[18:28:05] Updated database with local data.
[18:28:15] Updated database with local data.
[18:28:26] Updated database with local data.
[18:28:35] Updated database with local data.
[18:28:45] Updated database with local data.
[18:28:56] Updated database with local data.
[18:29:05] Updated database with local data.
[18:29:16] Updated database with local data.
[18:29:25] Updated database with local data.
[18:29:35] Updated database with local data.
[18:29:45] Updated database with local data.
[18:29:56] Updated database with local data.
[18:30:05] Updated database with local data.
[18:30:15] Updated database with local data.
[18:30:25] Updated database with local data.
[18:30:35] Updated database with local data.
[18:30:45] Updated database with local data.
[18:30:55] Updated database with local data.
[18:31:05] Updated database with local data.
[18:31:15] Updated database with local data.
[18:31:25] Updated database with local data.
[18:31:35] Updated database with local data.
[18:31:45] Updated database with local data.
[18:31:55] Updated database with local data.
[18:32:05] Updated database with local data.
[18:32:15] Updated database with local data.
[18:32:25] Updated database with local data.
[18:32:35] Updated database with local data.
[18:32:45] Updated database with local data.
[18:32:55] Updated database with local data.
[18:33:05] Updated database with local data.
[18:33:15] Updated database with local data.
[18:33:25] Updated database with local data.
[18:33:35] Updated database with local data.
[18:33:45] Updated database with local data.
[18:33:55] Updated database with local data.
[18:34:05] Updated database with local data.
[18:34:15] Updated database with local data.
[18:34:25] Updated database with local data.
[18:34:35] Updated database with local data.
[18:34:45] Updated database with local data.
[18:34:55] Updated database with local data.
[18:35:05] Updated database with local data.
[18:35:15] Updated database with local data.
[18:35:25] Updated database with local data.
[18:35:35] Updated database with local data.
[18:35:45] Updated database with local data.
[18:35:55] Updated database with local data.
[18:36:05] Updated database with local data.
[18:36:15] Updated database with local data.
[18:36:25] Updated database with local data.
[18:36:35] Updated database with local data.
[18:36:45] Updated database with local data.
[18:36:55] Updated database with local data.
[18:37:05] Updated database with local data.
[18:37:15] Updated database with local data.
[18:37:25] Updated database with local data.
[18:37:36] Updated database with local data.
[18:37:45] Updated database with local data.
[18:37:55] Updated database with local data.
[18:38:05] Updated database with local data.
[18:38:15] Updated database with local data.
[18:38:25] Updated database with local data.
[18:38:35] Updated database with local data.
[18:38:46] Updated database with local data.
[18:38:56] Updated database with local data.
[18:39:06] Updated database with local data.
[18:39:16] Updated database with local data.
[18:39:26] Updated database with local data.
[18:39:36] Updated database with local data.
[18:39:45] Updated database with local data.
[18:39:56] Updated database with local data.
[18:40:05] Updated database with local data.
[18:40:15] Updated database with local data.
[18:40:25] Updated database with local data.
[18:40:36] Updated database with local data.
[18:40:45] Updated database with local data.
[18:40:55] Updated database with local data.
[18:41:06] Updated database with local data.
[18:41:16] Updated database with local data.
[18:41:25] Updated database with local data.
[18:41:36] Updated database with local data.
[18:41:46] Updated database with local data.
[18:41:56] Updated database with local data.
[18:42:06] Updated database with local data.
[18:42:16] Updated database with local data.
[18:42:26] Updated database with local data.
[18:42:36] Updated database with local data.
[18:42:46] Updated database with local data.
[18:42:56] Updated database with local data.
[18:43:06] Updated database with local data.
[18:43:16] Updated database with local data.
[18:43:26] Updated database with local data.
[18:43:36] Updated database with local data.
[18:43:46] Updated database with local data.
[18:43:56] Updated database with local data.
[18:44:06] Updated database with local data.
[18:44:16] Updated database with local data.
[18:44:26] Updated database with local data.
[18:44:36] Updated database with local data.
[18:44:46] Updated database with local data.
[18:44:56] Updated database with local data.
[18:45:06] Updated database with local data.
[18:45:16] Updated database with local data.
[18:45:26] Updated database with local data.
[18:45:36] Updated database with local data.
[18:45:46] Updated database with local data.
[18:45:56] Updated database with local data.
[18:46:06] Updated database with local data.
[18:46:16] Updated database with local data.
[18:46:26] Updated database with local data.
[18:46:36] Updated database with local data.
[18:46:46] Updated database with local data.
[18:46:56] Updated database with local data.
[18:47:06] Updated database with local data.
[18:47:16] Updated database with local data.
[18:47:26] Updated database with local data.
[18:47:36] Updated database with local data.
[18:47:46] Updated database with local data.
[18:47:56] Updated database with local data.
[18:48:06] Updated database with local data.
[18:48:16] Updated database with local data.
[18:48:26] Updated database with local data.
[18:48:36] Updated database with local data.
[18:48:46] Updated database with local data.
[18:48:56] Updated database with local data.
[18:49:06] Updated database with local data.
[18:49:16] Updated database with local data.
[18:49:26] Updated database with local data.
[18:49:36] Updated database with local data.
[18:49:46] Updated database with local data.
[18:49:56] Updated database with local data.
[18:50:06] Updated database with local data.
[18:50:16] Updated database with local data.
[18:50:26] Updated database with local data.
[18:50:36] Updated database with local data.
[18:50:46] Updated database with local data.
[18:50:56] Updated database with local data.
[18:51:06] Updated database with local data.
[18:51:16] Updated database with local data.
[18:51:26] Updated database with local data.
[18:51:36] Updated database with local data.
[18:51:46] Updated database with local data.
[18:51:56] Updated database with local data.
[18:52:06] Updated database with local data.
[18:52:16] Updated database with local data.
[18:52:26] Updated database with local data.
[18:52:36] Updated database with local data.
[18:52:46] Updated database with local data.
[18:52:56] Updated database with local data.
[18:53:06] Updated database with local data.
[18:53:16] Updated database with local data.
[18:53:26] Updated database with local data.
[18:53:36] Updated database with local data.
[18:53:46] Updated database with local data.
[18:53:56] Updated database with local data.
[18:54:06] Updated database with local data.
[18:54:16] Updated database with local data.
[18:54:26] Updated database with local data.
[18:54:36] Updated database with local data.
[18:54:46] Updated database with local data.
[18:54:56] Updated database with local data.
[18:55:06] Updated database with local data.
[18:55:18] Updated database with local data.
[18:55:26] Updated database with local data.
[18:55:36] Updated database with local data.
[18:55:46] Updated database with local data.
[18:55:56] Updated database with local data.
[18:56:06] Updated database with local data.
[18:56:16] Updated database with local data.
[18:56:26] Updated database with local data.
[18:56:36] Updated database with local data.
[18:56:46] Updated database with local data.
[18:56:56] Updated database with local data.
[18:57:06] Updated database with local data.
[18:57:16] Updated database with local data.
[18:57:26] Updated database with local data.
[18:57:36] Updated database with local data.
[18:57:46] Updated database with local data.
[18:57:56] Updated database with local data.
[18:58:06] Updated database with local data.
[18:58:16] Updated database with local data.
[18:58:26] Updated database with local data.
[18:58:36] Updated database with local data.
[18:58:47] Updated database with local data.
[18:58:56] Updated database with local data.
[18:59:06] Updated database with local data.
[18:59:16] Updated database with local data.
[18:59:26] Updated database with local data.
[18:59:36] Updated database with local data.
[18:59:46] Updated database with local data.
[18:59:56] Updated database with local data.
[19:00:06] Updated database with local data.
[19:00:16] Updated database with local data.
[19:00:26] Updated database with local data.
[19:00:36] Updated database with local data.
[19:00:46] Updated database with local data.
[19:00:56] Updated database with local data.
[19:01:06] Updated database with local data.
[19:01:16] Updated database with local data.
[19:01:26] Updated database with local data.
[19:01:36] Updated database with local data.
[19:01:46] Updated database with local data.
[19:01:56] Updated database with local data.
[19:02:06] Updated database with local data.
[19:02:16] Updated database with local data.
[19:02:26] Updated database with local data.
[19:02:36] Updated database with local data.
[19:02:46] Updated database with local data.
[19:02:56] Updated database with local data.
[19:03:06] Updated database with local data.
[19:03:16] Updated database with local data.
[19:03:26] Updated database with local data.
[19:03:36] Updated database with local data.
[19:03:46] Updated database with local data.
[19:03:56] Updated database with local data.
[19:04:06] Updated database with local data.
[19:04:16] Updated database with local data.
[19:04:26] Updated database with local data.
[19:04:36] Updated database with local data.
[19:04:46] Updated database with local data.
[19:04:56] Updated database with local data.
[19:05:06] Updated database with local data.
[19:05:16] Updated database with local data.
[19:05:26] Updated database with local data.
[19:05:36] Updated database with local data.
[19:05:46] Updated database with local data.
[19:05:56] Updated database with local data.
[19:06:06] Updated database with local data.
[19:06:16] Updated database with local data.
[19:06:26] Updated database with local data.
[19:06:36] Updated database with local data.
[19:06:47] Updated database with local data.
[19:06:56] Updated database with local data.
[19:07:08] Updated database with local data.
[19:07:16] Updated database with local data.
[19:07:26] Updated database with local data.
[19:07:36] Updated database with local data.
[19:07:46] Updated database with local data.
[19:07:56] Updated database with local data.
[19:08:06] Updated database with local data.
[19:08:16] Updated database with local data.
[19:08:26] Updated database with local data.
[19:08:36] Updated database with local data.
[19:08:46] Updated database with local data.
[19:08:56] Updated database with local data.
[19:09:06] Updated database with local data.
[19:09:16] Updated database with local data.
[19:09:26] Updated database with local data.
[19:09:36] Updated database with local data.
[19:09:47] Updated database with local data.
[19:09:57] Updated database with local data.
[19:10:06] Updated database with local data.
[19:10:16] Updated database with local data.
[19:10:26] Updated database with local data.
[19:10:36] Updated database with local data.
[19:10:46] Updated database with local data.
[19:10:56] Updated database with local data.
[19:11:06] Updated database with local data.
[19:11:16] Updated database with local data.
[19:11:26] Updated database with local data.
[19:11:36] Updated database with local data.
[19:11:46] Updated database with local data.
[19:11:56] Updated database with local data.
[19:12:06] Updated database with local data.
[19:12:16] Updated database with local data.
[19:12:26] Updated database with local data.
[19:12:36] Updated database with local data.
[19:12:46] Updated database with local data.
[19:12:56] Updated database with local data.
[19:13:06] Updated database with local data.
[19:13:16] Updated database with local data.
[19:13:27] Updated database with local data.
[19:13:36] Updated database with local data.
[19:13:48] Updated database with local data.
[19:13:56] Updated database with local data.
[19:14:07] Updated database with local data.
[19:14:16] Updated database with local data.
[19:14:26] Updated database with local data.
[19:14:36] Updated database with local data.
[19:14:47] Updated database with local data.
[19:14:56] Updated database with local data.
[19:15:06] Updated database with local data.
[19:15:16] Updated database with local data.
[19:15:26] Updated database with local data.
[19:15:36] Updated database with local data.
[19:15:47] Updated database with local data.
[19:15:57] Updated database with local data.
[19:16:07] Updated database with local data.
[19:16:17] Updated database with local data.
[19:16:27] Updated database with local data.
[19:16:37] Updated database with local data.
[19:16:47] Updated database with local data.
[19:16:57] Updated database with local data.
[19:17:07] Updated database with local data.
[19:17:17] Updated database with local data.
[19:17:27] Updated database with local data.
[19:17:37] Updated database with local data.
[19:17:47] Updated database with local data.
[19:17:57] Updated database with local data.
[19:18:07] Updated database with local data.
[19:18:17] Updated database with local data.
[19:18:27] Updated database with local data.
[19:18:37] Updated database with local data.
[19:18:47] Updated database with local data.
[19:18:57] Updated database with local data.
[19:19:07] Updated database with local data.
[19:19:17] Updated database with local data.
[19:19:27] Updated database with local data.
[19:19:37] Updated database with local data.
[19:19:47] Updated database with local data.
[19:19:57] Updated database with local data.
[19:20:07] Updated database with local data.
[19:20:17] Updated database with local data.
[19:20:27] Updated database with local data.
[19:20:37] Updated database with local data.
[19:20:47] Updated database with local data.
[19:20:57] Updated database with local data.
[19:21:07] Updated database with local data.
[19:21:17] Updated database with local data.
[19:21:27] Updated database with local data.
[19:21:37] Updated database with local data.
[19:21:47] Updated database with local data.
[19:21:57] Updated database with local data.
[19:22:07] Updated database with local data.
[19:22:17] Updated database with local data.
[19:22:27] Updated database with local data.
[19:22:37] Updated database with local data.
[19:22:47] Updated database with local data.
[19:22:57] Updated database with local data.
[19:23:07] Updated database with local data.
[19:23:17] Updated database with local data.
[19:23:27] Updated database with local data.
[19:23:37] Updated database with local data.
[19:23:47] Updated database with local data.
[19:23:57] Updated database with local data.
[19:24:07] Updated database with local data.
[19:24:17] Updated database with local data.
[19:24:27] Updated database with local data.
[19:24:37] Updated database with local data.
[19:24:47] Updated database with local data.
[19:24:57] Updated database with local data.
[19:25:07] Updated database with local data.
[19:25:17] Updated database with local data.
[19:25:27] Updated database with local data.
[19:25:37] Updated database with local data.
[19:25:47] Updated database with local data.
[19:25:57] Updated database with local data.
[19:26:07] Updated database with local data.
[19:26:17] Updated database with local data.
[19:26:27] Updated database with local data.
[19:26:37] Updated database with local data.
[19:26:47] Updated database with local data.
[19:26:57] Updated database with local data.
[19:27:07] Updated database with local data.
[19:27:17] Updated database with local data.
[19:27:27] Updated database with local data.
[19:27:37] Updated database with local data.
[19:27:47] Updated database with local data.
[19:27:57] Updated database with local data.
[19:28:07] Updated database with local data.
[19:28:17] Updated database with local data.
[19:28:27] Updated database with local data.
[19:28:37] Updated database with local data.
[19:28:47] Updated database with local data.
[19:28:57] Updated database with local data.
[19:29:07] Updated database with local data.
[19:29:17] Updated database with local data.
[19:29:27] Updated database with local data.
[19:29:37] Updated database with local data.
[19:29:47] Updated database with local data.
[19:29:57] Updated database with local data.
[19:30:07] Updated database with local data.
[19:30:17] Updated database with local data.
[19:30:27] Updated database with local data.
[19:30:37] Updated database with local data.
[19:30:47] Updated database with local data.
[19:30:57] Updated database with local data.
[19:31:07] Updated database with local data.
[19:31:17] Updated database with local data.
[19:31:27] Updated database with local data.
[19:31:37] Updated database with local data.
[19:31:47] Updated database with local data.
[19:31:57] Updated database with local data.
[19:32:07] Updated database with local data.
[19:32:17] Updated database with local data.
[19:32:27] Updated database with local data.
[19:32:37] Updated database with local data.
[19:32:47] Updated database with local data.
[19:32:57] Updated database with local data.
[19:33:07] Updated database with local data.
[19:33:17] Updated database with local data.
[19:33:27] Updated database with local data.
[19:33:37] Updated database with local data.
[19:33:47] Updated database with local data.
[19:33:57] Updated database with local data.
[19:34:07] Updated database with local data.
[19:34:17] Updated database with local data.
[19:34:27] Updated database with local data.
[19:34:37] Updated database with local data.
[19:34:47] Updated database with local data.
[19:34:57] Updated database with local data.
[19:35:07] Updated database with local data.
[19:35:17] Updated database with local data.
[19:35:27] Updated database with local data.
[19:35:37] Updated database with local data.
[19:35:47] Updated database with local data.
[19:35:57] Updated database with local data.
[19:36:08] Updated database with local data.
[19:36:17] Updated database with local data.
[19:36:27] Updated database with local data.
[19:36:37] Updated database with local data.
[19:36:47] Updated database with local data.
[19:36:57] Updated database with local data.
[19:37:07] Updated database with local data.
[19:37:17] Updated database with local data.
[19:37:27] Updated database with local data.
[19:37:37] Updated database with local data.
[19:37:47] Updated database with local data.
[19:37:57] Updated database with local data.
[19:38:07] Updated database with local data.
[19:38:17] Updated database with local data.
[19:38:27] Updated database with local data.
[19:38:37] Updated database with local data.
[19:38:47] Updated database with local data.
[19:38:57] Updated database with local data.
[19:39:07] Updated database with local data.
[19:39:17] Updated database with local data.
[19:39:27] Updated database with local data.
[19:39:37] Updated database with local data.
[19:39:47] Updated database with local data.
[19:39:57] Updated database with local data.
[19:40:07] Updated database with local data.
[19:40:17] Updated database with local data.
[19:40:27] Updated database with local data.
[19:40:37] Updated database with local data.
[19:40:47] Updated database with local data.
[19:40:57] Updated database with local data.
[19:41:07] Updated database with local data.
[19:41:17] Updated database with local data.
[19:41:27] Updated database with local data.
[19:41:37] Updated database with local data.
[19:41:47] Updated database with local data.
[19:41:57] Updated database with local data.
[19:42:07] Updated database with local data.
[19:42:17] Updated database with local data.
[19:42:27] Updated database with local data.
[19:42:37] Updated database with local data.
[19:42:47] Updated database with local data.
[19:42:57] Updated database with local data.
[19:43:07] Updated database with local data.
[19:43:17] Updated database with local data.
[19:43:27] Updated database with local data.
[19:43:37] Updated database with local data.
[19:43:48] Updated database with local data.
[19:43:57] Updated database with local data.
[19:44:07] Updated database with local data.
[19:44:17] Updated database with local data.
[19:44:27] Updated database with local data.
[19:44:37] Updated database with local data.
[19:44:47] Updated database with local data.
[19:44:57] Updated database with local data.
[19:45:07] Updated database with local data.
[19:45:17] Updated database with local data.
[19:45:27] Updated database with local data.
[19:45:37] Updated database with local data.
[19:45:47] Updated database with local data.
[19:45:57] Updated database with local data.
[19:46:07] Updated database with local data.
[19:46:17] Updated database with local data.
[19:46:27] Updated database with local data.
[19:46:37] Updated database with local data.
[19:46:47] Updated database with local data.
[19:46:57] Updated database with local data.
[19:47:07] Updated database with local data.
[19:47:17] Updated database with local data.
[19:47:27] Updated database with local data.
[19:47:37] Updated database with local data.
[19:47:47] Updated database with local data.
[19:47:58] Updated database with local data.
[19:48:08] Updated database with local data.
[19:48:18] Updated database with local data.
[19:48:28] Updated database with local data.
[19:48:38] Updated database with local data.
[19:48:48] Updated database with local data.
[19:48:58] Updated database with local data.
[19:49:08] Updated database with local data.
[19:49:18] Updated database with local data.
[19:49:28] Updated database with local data.
[19:49:38] Updated database with local data.
[19:49:50] Updated database with local data.
[19:49:58] Updated database with local data.
[19:50:08] Updated database with local data.
[19:50:18] Updated database with local data.
[19:50:28] Updated database with local data.
[19:50:38] Updated database with local data.
[19:50:48] Updated database with local data.
[19:50:58] Updated database with local data.
[19:51:08] Updated database with local data.
[19:51:18] Updated database with local data.
[19:51:28] Updated database with local data.
[19:51:38] Updated database with local data.
[19:51:48] Updated database with local data.
[19:51:58] Updated database with local data.
[19:52:08] Updated database with local data.
[19:52:18] Updated database with local data.
[19:52:28] Updated database with local data.
[19:52:38] Updated database with local data.
[19:52:48] Updated database with local data.
[19:52:58] Updated database with local data.
[19:53:08] Updated database with local data.
[19:53:18] Updated database with local data.
[19:53:28] Updated database with local data.
[19:53:38] Updated database with local data.
[19:53:48] Updated database with local data.
[19:53:58] Updated database with local data.
[19:54:08] Updated database with local data.
[19:54:18] Updated database with local data.
[19:54:28] Updated database with local data.
[19:54:38] Updated database with local data.
[19:54:48] Updated database with local data.
[19:54:58] Updated database with local data.
[19:55:08] Updated database with local data.
[19:55:18] Updated database with local data.
[19:55:28] Updated database with local data.
[19:55:38] Updated database with local data.
[19:55:48] Updated database with local data.
[19:55:58] Updated database with local data.
[19:56:08] Updated database with local data.
[19:56:18] Updated database with local data.
[19:56:28] Updated database with local data.
[19:56:38] Updated database with local data.
[19:56:48] Updated database with local data.
[19:56:58] Updated database with local data.
[19:57:08] Updated database with local data.
[19:57:18] Updated database with local data.
[19:57:28] Updated database with local data.
[19:57:38] Updated database with local data.
[19:57:48] Updated database with local data.
[19:57:58] Updated database with local data.
[19:58:08] Updated database with local data.
[19:58:18] Updated database with local data.
[19:58:28] Updated database with local data.
[19:58:38] Updated database with local data.
[19:58:48] Updated database with local data.
[19:58:58] Updated database with local data.
[19:59:08] Updated database with local data.
[19:59:18] Updated database with local data.
[19:59:28] Updated database with local data.
[19:59:38] Updated database with local data.
[19:59:48] Updated database with local data.
[19:59:58] Updated database with local data.
[20:00:08] Updated database with local data.
[20:00:18] Updated database with local data.
[20:00:29] Updated database with local data.
[20:00:38] Updated database with local data.
[20:00:48] Updated database with local data.
[20:00:58] Updated database with local data.
[20:01:08] Updated database with local data.
[20:01:19] Updated database with local data.
[20:01:29] Updated database with local data.
[20:01:38] Updated database with local data.
[20:01:48] Updated database with local data.
[20:01:58] Updated database with local data.
[20:02:08] Updated database with local data.
[20:02:18] Updated database with local data.
[20:02:29] Updated database with local data.
[20:02:38] Updated database with local data.
[20:02:48] Updated database with local data.
[20:02:59] Updated database with local data.
[20:03:09] Updated database with local data.
[20:03:19] Updated database with local data.
[20:03:29] Updated database with local data.
[20:03:39] Updated database with local data.
[20:03:49] Updated database with local data.
[20:03:59] Updated database with local data.
[20:04:09] Updated database with local data.
[20:04:19] Updated database with local data.
[20:04:29] Updated database with local data.
[20:04:39] Updated database with local data.
[20:04:49] Updated database with local data.
[20:04:59] Updated database with local data.
[20:05:09] Updated database with local data.
[20:05:19] Updated database with local data.
[20:05:29] Updated database with local data.
[20:05:39] Updated database with local data.
[20:05:49] Updated database with local data.
[20:05:59] Updated database with local data.
[20:06:09] Updated database with local data.
[20:06:19] Updated database with local data.
[20:06:29] Updated database with local data.
[20:06:39] Updated database with local data.
[20:06:49] Updated database with local data.
[20:06:59] Updated database with local data.
[20:07:09] Updated database with local data.
[20:07:19] Updated database with local data.
[20:07:29] Updated database with local data.
[20:07:39] Updated database with local data.
[20:07:49] Updated database with local data.
[20:07:59] Updated database with local data.
[20:08:09] Updated database with local data.
[20:08:19] Updated database with local data.
[20:08:29] Updated database with local data.
[20:08:39] Updated database with local data.
[20:08:49] Updated database with local data.
[20:08:59] Updated database with local data.
[20:09:09] Updated database with local data.
[20:09:19] Updated database with local data.
[20:09:29] Updated database with local data.
[20:09:39] Updated database with local data.
[20:09:49] Updated database with local data.
[20:09:59] Updated database with local data.
[20:10:09] Updated database with local data.
[20:10:19] Updated database with local data.
[20:10:29] Updated database with local data.
[20:10:39] Updated database with local data.
[20:10:49] Updated database with local data.
[20:10:59] Updated database with local data.
[20:11:09] Updated database with local data.
[20:11:19] Updated database with local data.
[20:11:29] Updated database with local data.
[20:11:39] Updated database with local data.
[20:11:49] Updated database with local data.
[20:11:59] Updated database with local data.
[20:12:09] Updated database with local data.
[20:12:19] Updated database with local data.
[20:12:29] Updated database with local data.
[20:12:39] Updated database with local data.
[20:12:49] Updated database with local data.
[20:12:59] Updated database with local data.
[20:13:09] Updated database with local data.
[20:13:19] Updated database with local data.
[20:13:30] Updated database with local data.
[20:13:39] Updated database with local data.
[20:13:49] Updated database with local data.
[20:13:59] Updated database with local data.
[20:14:09] Updated database with local data.
[20:14:19] Updated database with local data.
[20:14:29] Updated database with local data.
[20:14:39] Updated database with local data.
[20:14:50] Updated database with local data.
[20:15:00] Updated database with local data.
[20:15:10] Updated database with local data.
[20:15:20] Updated database with local data.
[20:15:30] Updated database with local data.
[20:15:40] Updated database with local data.
[20:15:50] Updated database with local data.
[20:16:00] Updated database with local data.
[20:16:10] Updated database with local data.
[20:16:20] Updated database with local data.
[20:16:30] Updated database with local data.
[20:16:40] Updated database with local data.
[20:16:50] Updated database with local data.
[20:17:00] Updated database with local data.
[20:17:10] Updated database with local data.
[20:17:20] Updated database with local data.
[20:17:30] Updated database with local data.
[20:17:40] Updated database with local data.
[20:17:50] Updated database with local data.
[20:18:00] Updated database with local data.
[20:18:10] Updated database with local data.
[20:18:20] Updated database with local data.
[20:18:30] Updated database with local data.
[20:18:40] Updated database with local data.
[20:18:50] Updated database with local data.
[20:19:00] Updated database with local data.
[20:19:10] Updated database with local data.
[20:19:20] Updated database with local data.
[20:19:30] Updated database with local data.
[20:19:40] Updated database with local data.
[20:19:50] Updated database with local data.
[20:20:00] Updated database with local data.
[20:20:10] Updated database with local data.
[20:20:20] Updated database with local data.
[20:20:30] Updated database with local data.
[20:20:40] Updated database with local data.
[20:20:50] Updated database with local data.
[20:21:00] Updated database with local data.
