This is a log file of Statz made on 2020-12-31 22:03:05

[22:03:05] Enabled Statz!
[22:03:15] Updated database with local data.
[22:03:25] Updated database with local data.
[22:03:35] Updated database with local data.
[22:03:45] Updated database with local data.
[22:03:55] Updated database with local data.
[22:04:05] Updated database with local data.
[22:04:16] Updated database with local data.
[22:04:26] Updated database with local data.
[22:04:36] Updated database with local data.
[22:04:46] Updated database with local data.
[22:04:56] Updated database with local data.
[22:05:06] Updated database with local data.
[22:05:16] Updated database with local data.
[22:05:26] Updated database with local data.
[22:05:36] Updated database with local data.
[22:05:46] Updated database with local data.
[22:05:57] Updated database with local data.
[22:06:06] Updated database with local data.
[22:06:16] Updated database with local data.
[22:06:26] Updated database with local data.
[22:06:36] Updated database with local data.
[22:06:46] Updated database with local data.
[22:06:56] Updated database with local data.
[22:07:07] Updated database with local data.
[22:07:16] Updated database with local data.
[22:07:26] Updated database with local data.
[22:07:36] Updated database with local data.
[22:07:46] Updated database with local data.
[22:07:56] Updated database with local data.
[22:08:08] Updated database with local data.
[22:08:16] Updated database with local data.
[22:08:26] Updated database with local data.
[22:08:36] Updated database with local data.
[22:08:47] Updated database with local data.
[22:08:57] Updated database with local data.
[22:09:08] Updated database with local data.
[22:09:17] Updated database with local data.
[22:09:27] Updated database with local data.
[22:09:37] Updated database with local data.
[22:09:47] Updated database with local data.
[22:09:57] Updated database with local data.
[22:10:08] Updated database with local data.
[22:10:17] Updated database with local data.
[22:10:27] Updated database with local data.
[22:10:37] Updated database with local data.
[22:10:47] Updated database with local data.
[22:10:57] Updated database with local data.
[22:11:07] Updated database with local data.
[22:11:17] Updated database with local data.
[22:11:27] Updated database with local data.
[22:11:37] Updated database with local data.
[22:11:47] Updated database with local data.
[22:11:58] Updated database with local data.
[22:12:08] Updated database with local data.
[22:12:19] Updated database with local data.
[22:12:28] Updated database with local data.
[22:12:38] Updated database with local data.
[22:12:48] Updated database with local data.
[22:12:58] Updated database with local data.
[22:13:08] Updated database with local data.
[22:13:18] Updated database with local data.
[22:13:28] Updated database with local data.
[22:13:38] Updated database with local data.
[22:13:48] Updated database with local data.
[22:13:58] Updated database with local data.
[22:14:08] Updated database with local data.
[22:14:18] Updated database with local data.
[22:14:28] Updated database with local data.
[22:14:38] Updated database with local data.
[22:14:48] Updated database with local data.
[22:14:59] Updated database with local data.
[22:15:08] Updated database with local data.
[22:15:18] Updated database with local data.
[22:15:28] Updated database with local data.
[22:15:39] Updated database with local data.
[22:15:49] Updated database with local data.
[22:15:59] Updated database with local data.
[22:16:10] Updated database with local data.
[22:16:19] Updated database with local data.
[22:16:29] Updated database with local data.
[22:16:39] Updated database with local data.
[22:16:49] Updated database with local data.
[22:16:59] Updated database with local data.
[22:17:09] Updated database with local data.
[22:17:19] Updated database with local data.
[22:17:29] Updated database with local data.
[22:17:39] Updated database with local data.
[22:17:49] Updated database with local data.
[22:17:59] Updated database with local data.
[22:18:09] Updated database with local data.
[22:18:19] Updated database with local data.
[22:18:29] Updated database with local data.
[22:18:39] Updated database with local data.
[22:18:51] Updated database with local data.
[22:18:59] Updated database with local data.
[22:19:09] Updated database with local data.
[22:19:19] Updated database with local data.
[22:19:29] Updated database with local data.
[22:19:39] Updated database with local data.
[22:19:49] Updated database with local data.
[22:19:59] Updated database with local data.
[22:20:09] Updated database with local data.
[22:20:19] Updated database with local data.
[22:20:29] Updated database with local data.
[22:20:39] Updated database with local data.
[22:20:49] Updated database with local data.
[22:20:59] Updated database with local data.
[22:21:09] Updated database with local data.
[22:21:19] Updated database with local data.
[22:21:29] Updated database with local data.
[22:21:39] Updated database with local data.
[22:21:49] Updated database with local data.
[22:21:59] Updated database with local data.
[22:22:10] Updated database with local data.
[22:22:19] Updated database with local data.
[22:22:29] Updated database with local data.
[22:22:40] Updated database with local data.
[22:22:50] Updated database with local data.
[22:23:00] Updated database with local data.
[22:23:10] Updated database with local data.
[22:23:20] Updated database with local data.
[22:23:30] Updated database with local data.
[22:23:40] Updated database with local data.
[22:23:50] Updated database with local data.
[22:24:00] Updated database with local data.
[22:24:10] Updated database with local data.
[22:24:20] Updated database with local data.
[22:24:30] Updated database with local data.
[22:24:40] Updated database with local data.
[22:24:50] Updated database with local data.
[22:25:00] Updated database with local data.
[22:25:10] Updated database with local data.
[22:25:20] Updated database with local data.
[22:25:31] Updated database with local data.
[22:25:40] Updated database with local data.
[22:25:50] Updated database with local data.
[22:26:01] Updated database with local data.
[22:26:10] Updated database with local data.
[22:26:20] Updated database with local data.
[22:26:30] Updated database with local data.
[22:26:40] Updated database with local data.
[22:26:50] Updated database with local data.
[22:27:00] Updated database with local data.
[22:27:10] Updated database with local data.
[22:27:20] Updated database with local data.
[22:27:30] Updated database with local data.
[22:27:40] Updated database with local data.
[22:27:50] Updated database with local data.
[22:28:00] Updated database with local data.
[22:28:10] Updated database with local data.
[22:28:20] Updated database with local data.
[22:28:30] Updated database with local data.
[22:28:40] Updated database with local data.
[22:28:50] Updated database with local data.
[22:29:00] Updated database with local data.
[22:29:12] Updated database with local data.
[22:29:20] Updated database with local data.
[22:29:30] Updated database with local data.
[22:29:40] Updated database with local data.
[22:29:50] Updated database with local data.
[22:30:00] Updated database with local data.
[22:30:11] Updated database with local data.
[22:30:20] Updated database with local data.
[22:30:30] Updated database with local data.
[22:30:40] Updated database with local data.
[22:30:50] Updated database with local data.
[22:31:00] Updated database with local data.
[22:31:10] Updated database with local data.
[22:31:20] Updated database with local data.
[22:31:30] Updated database with local data.
[22:31:40] Updated database with local data.
[22:31:50] Updated database with local data.
[22:32:01] Updated database with local data.
[22:32:11] Updated database with local data.
[22:32:21] Updated database with local data.
[22:32:31] Updated database with local data.
[22:32:41] Updated database with local data.
[22:32:51] Updated database with local data.
[22:33:01] Updated database with local data.
[22:33:11] Updated database with local data.
[22:33:21] Updated database with local data.
[22:33:31] Updated database with local data.
[22:33:41] Updated database with local data.
[22:33:54] Updated database with local data.
[22:34:01] Updated database with local data.
[22:34:11] Updated database with local data.
[22:34:21] Updated database with local data.
[22:34:31] Updated database with local data.
[22:34:41] Updated database with local data.
[22:34:51] Updated database with local data.
[22:35:01] Updated database with local data.
[22:35:11] Updated database with local data.
[22:35:21] Updated database with local data.
[22:35:31] Updated database with local data.
[22:35:41] Updated database with local data.
[22:35:51] Updated database with local data.
[22:36:01] Updated database with local data.
[22:36:11] Updated database with local data.
[22:36:23] Updated database with local data.
[22:36:31] Updated database with local data.
[22:36:41] Updated database with local data.
[22:36:51] Updated database with local data.
[22:37:01] Updated database with local data.
[22:37:11] Updated database with local data.
[22:37:21] Updated database with local data.
[22:37:31] Updated database with local data.
[22:37:41] Updated database with local data.
[22:37:51] Updated database with local data.
[22:38:01] Updated database with local data.
[22:38:11] Updated database with local data.
[22:38:21] Updated database with local data.
[22:38:31] Updated database with local data.
[22:38:41] Updated database with local data.
[22:38:51] Updated database with local data.
[22:39:01] Updated database with local data.
[22:39:11] Updated database with local data.
[22:39:21] Updated database with local data.
[22:39:31] Updated database with local data.
[22:39:41] Updated database with local data.
[22:39:51] Updated database with local data.
[22:40:01] Updated database with local data.
[22:40:11] Updated database with local data.
[22:40:21] Updated database with local data.
[22:40:31] Updated database with local data.
[22:40:41] Updated database with local data.
[22:40:51] Updated database with local data.
[22:41:01] Updated database with local data.
[22:41:11] Updated database with local data.
[22:41:21] Updated database with local data.
[22:41:31] Updated database with local data.
[22:41:41] Updated database with local data.
[22:41:51] Updated database with local data.
[22:42:01] Updated database with local data.
[22:42:11] Updated database with local data.
[22:42:21] Updated database with local data.
[22:42:31] Updated database with local data.
[22:42:41] Updated database with local data.
[22:42:51] Updated database with local data.
[22:43:01] Updated database with local data.
[22:43:11] Updated database with local data.
[22:43:21] Updated database with local data.
[22:43:31] Updated database with local data.
[22:43:41] Updated database with local data.
[22:43:51] Updated database with local data.
[22:44:01] Updated database with local data.
[22:44:12] Updated database with local data.
[22:44:21] Updated database with local data.
[22:44:31] Updated database with local data.
[22:44:41] Updated database with local data.
[22:44:51] Updated database with local data.
[22:45:02] Updated database with local data.
[22:45:12] Updated database with local data.
[22:45:22] Updated database with local data.
[22:45:32] Updated database with local data.
[22:45:42] Updated database with local data.
[22:45:52] Updated database with local data.
[22:46:02] Updated database with local data.
[22:46:12] Updated database with local data.
[22:46:22] Updated database with local data.
[22:46:32] Updated database with local data.
[22:46:42] Updated database with local data.
[22:46:52] Updated database with local data.
[22:47:02] Updated database with local data.
[22:47:12] Updated database with local data.
[22:47:22] Updated database with local data.
[22:47:32] Updated database with local data.
[22:47:42] Updated database with local data.
[22:47:52] Updated database with local data.
[22:48:02] Updated database with local data.
[22:48:12] Updated database with local data.
[22:48:22] Updated database with local data.
[22:48:32] Updated database with local data.
[22:48:42] Updated database with local data.
[22:48:52] Updated database with local data.
[22:49:02] Updated database with local data.
[22:49:12] Updated database with local data.
[22:49:22] Updated database with local data.
[22:49:32] Updated database with local data.
[22:49:42] Updated database with local data.
[22:49:53] Updated database with local data.
[22:50:03] Updated database with local data.
[22:50:14] Updated database with local data.
[22:50:23] Updated database with local data.
[22:50:33] Updated database with local data.
[22:50:43] Updated database with local data.
[22:50:53] Updated database with local data.
[22:51:03] Updated database with local data.
[22:51:13] Updated database with local data.
[22:51:24] Updated database with local data.
[22:51:33] Updated database with local data.
[22:51:43] Updated database with local data.
[22:51:53] Updated database with local data.
[22:52:03] Updated database with local data.
[22:52:14] Updated database with local data.
[22:52:23] Updated database with local data.
[22:52:33] Updated database with local data.
[22:52:43] Updated database with local data.
[22:52:53] Updated database with local data.
[22:53:04] Updated database with local data.
[22:53:14] Updated database with local data.
[22:53:24] Updated database with local data.
[22:53:34] Updated database with local data.
[22:53:44] Updated database with local data.
[22:53:54] Updated database with local data.
[22:54:04] Updated database with local data.
[22:54:14] Updated database with local data.
[22:54:24] Updated database with local data.
[22:54:35] Updated database with local data.
[22:54:44] Updated database with local data.
[22:54:55] Updated database with local data.
[22:55:04] Updated database with local data.
[22:55:14] Updated database with local data.
[22:55:24] Updated database with local data.
[22:55:34] Updated database with local data.
[22:55:44] Updated database with local data.
[22:55:54] Updated database with local data.
[22:56:04] Updated database with local data.
[22:56:14] Updated database with local data.
[22:56:24] Updated database with local data.
[22:56:34] Updated database with local data.
[22:56:44] Updated database with local data.
[22:56:54] Updated database with local data.
[22:57:04] Updated database with local data.
[22:57:14] Updated database with local data.
[22:57:24] Updated database with local data.
[22:57:34] Updated database with local data.
[22:57:44] Updated database with local data.
[22:57:54] Updated database with local data.
[22:58:04] Updated database with local data.
[22:58:14] Updated database with local data.
[22:58:24] Updated database with local data.
[22:58:34] Updated database with local data.
[22:58:44] Updated database with local data.
[22:58:55] Updated database with local data.
[22:59:04] Updated database with local data.
[22:59:14] Updated database with local data.
[22:59:24] Updated database with local data.
[22:59:34] Updated database with local data.
[22:59:44] Updated database with local data.
[22:59:54] Updated database with local data.
[23:00:04] Updated database with local data.
[23:00:14] Updated database with local data.
[23:00:24] Updated database with local data.
[23:00:34] Updated database with local data.
[23:00:44] Updated database with local data.
[23:00:54] Updated database with local data.
[23:01:04] Updated database with local data.
[23:01:15] Updated database with local data.
[23:01:24] Updated database with local data.
[23:01:34] Updated database with local data.
[23:01:45] Updated database with local data.
[23:01:55] Updated database with local data.
[23:02:05] Updated database with local data.
[23:02:15] Updated database with local data.
[23:02:25] Updated database with local data.
[23:02:35] Updated database with local data.
[23:02:45] Updated database with local data.
[23:02:56] Updated database with local data.
[23:03:05] Updated database with local data.
[23:03:15] Updated database with local data.
[23:03:25] Updated database with local data.
[23:03:35] Updated database with local data.
[23:03:45] Updated database with local data.
[23:03:55] Updated database with local data.
[23:04:05] Updated database with local data.
[23:04:15] Updated database with local data.
[23:04:25] Updated database with local data.
[23:04:35] Updated database with local data.
[23:04:45] Updated database with local data.
[23:04:55] Updated database with local data.
[23:05:05] Updated database with local data.
[23:05:15] Updated database with local data.
[23:05:25] Updated database with local data.
[23:05:35] Updated database with local data.
[23:05:45] Updated database with local data.
[23:05:55] Updated database with local data.
[23:06:05] Updated database with local data.
[23:06:15] Updated database with local data.
[23:06:25] Updated database with local data.
[23:06:35] Updated database with local data.
[23:06:45] Updated database with local data.
[23:06:55] Updated database with local data.
[23:07:05] Updated database with local data.
[23:07:15] Updated database with local data.
[23:07:25] Updated database with local data.
[23:07:35] Updated database with local data.
[23:07:45] Updated database with local data.
[23:07:55] Updated database with local data.
[23:08:05] Updated database with local data.
[23:08:16] Updated database with local data.
[23:08:26] Updated database with local data.
[23:08:36] Updated database with local data.
[23:08:46] Updated database with local data.
[23:08:56] Updated database with local data.
[23:09:06] Updated database with local data.
[23:09:16] Updated database with local data.
[23:09:26] Updated database with local data.
[23:09:36] Updated database with local data.
[23:09:47] Updated database with local data.
[23:09:57] Updated database with local data.
[23:10:07] Updated database with local data.
[23:10:16] Updated database with local data.
[23:10:26] Updated database with local data.
[23:10:37] Updated database with local data.
[23:10:46] Updated database with local data.
[23:10:56] Updated database with local data.
[23:11:06] Updated database with local data.
[23:11:16] Updated database with local data.
[23:11:26] Updated database with local data.
[23:11:36] Updated database with local data.
[23:11:46] Updated database with local data.
[23:11:56] Updated database with local data.
[23:12:07] Updated database with local data.
[23:12:17] Updated database with local data.
[23:12:26] Updated database with local data.
[23:12:36] Updated database with local data.
[23:12:46] Updated database with local data.
[23:12:56] Updated database with local data.
[23:13:06] Updated database with local data.
[23:13:16] Updated database with local data.
[23:13:26] Updated database with local data.
[23:13:37] Updated database with local data.
[23:13:47] Updated database with local data.
[23:13:57] Updated database with local data.
[23:14:07] Updated database with local data.
[23:14:17] Updated database with local data.
[23:14:27] Updated database with local data.
[23:14:37] Updated database with local data.
[23:14:47] Updated database with local data.
[23:14:57] Updated database with local data.
[23:15:06] Updated database with local data.
[23:15:17] Updated database with local data.
[23:15:27] Updated database with local data.
[23:15:37] Updated database with local data.
[23:15:47] Updated database with local data.
[23:15:57] Updated database with local data.
[23:16:07] Updated database with local data.
[23:16:17] Updated database with local data.
[23:16:27] Updated database with local data.
[23:16:37] Updated database with local data.
[23:16:49] Updated database with local data.
[23:16:57] Updated database with local data.
[23:17:07] Updated database with local data.
[23:17:18] Updated database with local data.
[23:17:27] Updated database with local data.
[23:17:37] Updated database with local data.
[23:17:47] Updated database with local data.
[23:17:58] Updated database with local data.
[23:18:07] Updated database with local data.
[23:18:17] Updated database with local data.
[23:18:27] Updated database with local data.
[23:18:37] Updated database with local data.
[23:18:48] Updated database with local data.
[23:18:58] Updated database with local data.
[23:19:08] Updated database with local data.
[23:19:18] Updated database with local data.
[23:19:28] Updated database with local data.
[23:19:38] Updated database with local data.
[23:19:48] Updated database with local data.
[23:19:58] Updated database with local data.
[23:20:08] Updated database with local data.
[23:20:18] Updated database with local data.
[23:20:28] Updated database with local data.
[23:20:39] Updated database with local data.
[23:20:49] Updated database with local data.
[23:20:59] Updated database with local data.
[23:21:08] Updated database with local data.
[23:21:19] Updated database with local data.
[23:21:29] Updated database with local data.
[23:21:39] Updated database with local data.
[23:21:49] Updated database with local data.
[23:21:59] Updated database with local data.
[23:22:09] Updated database with local data.
[23:22:19] Updated database with local data.
[23:22:29] Updated database with local data.
[23:22:40] Updated database with local data.
[23:22:49] Updated database with local data.
[23:22:59] Updated database with local data.
[23:23:09] Updated database with local data.
[23:23:19] Updated database with local data.
[23:23:29] Updated database with local data.
[23:23:39] Updated database with local data.
[23:23:49] Updated database with local data.
[23:23:59] Updated database with local data.
[23:24:09] Updated database with local data.
[23:24:19] Updated database with local data.
[23:24:29] Updated database with local data.
[23:24:39] Updated database with local data.
[23:24:49] Updated database with local data.
[23:25:00] Updated database with local data.
[23:25:09] Updated database with local data.
[23:25:19] Updated database with local data.
[23:25:29] Updated database with local data.
[23:25:40] Updated database with local data.
[23:25:50] Updated database with local data.
[23:26:00] Updated database with local data.
[23:26:10] Updated database with local data.
[23:26:20] Updated database with local data.
[23:26:30] Updated database with local data.
[23:26:40] Updated database with local data.
[23:26:51] Updated database with local data.
[23:27:00] Updated database with local data.
[23:27:10] Updated database with local data.
[23:27:20] Updated database with local data.
[23:27:30] Updated database with local data.
[23:27:40] Updated database with local data.
[23:27:51] Updated database with local data.
[23:28:00] Updated database with local data.
[23:28:10] Updated database with local data.
[23:28:20] Updated database with local data.
[23:28:30] Updated database with local data.
[23:28:40] Updated database with local data.
[23:28:51] Updated database with local data.
[23:29:01] Updated database with local data.
[23:29:10] Updated database with local data.
[23:29:20] Updated database with local data.
[23:29:30] Updated database with local data.
[23:29:40] Updated database with local data.
[23:29:50] Updated database with local data.
[23:30:01] Updated database with local data.
[23:30:10] Updated database with local data.
[23:30:20] Updated database with local data.
[23:30:31] Updated database with local data.
[23:30:40] Updated database with local data.
[23:30:51] Updated database with local data.
[23:31:01] Updated database with local data.
[23:31:10] Updated database with local data.
[23:31:21] Updated database with local data.
[23:31:31] Updated database with local data.
[23:31:40] Updated database with local data.
[23:31:51] Updated database with local data.
[23:32:01] Updated database with local data.
[23:32:11] Updated database with local data.
[23:32:22] Updated database with local data.
[23:32:31] Updated database with local data.
[23:32:41] Updated database with local data.
[23:32:51] Updated database with local data.
[23:33:01] Updated database with local data.
[23:33:11] Updated database with local data.
[23:33:21] Updated database with local data.
[23:33:31] Updated database with local data.
[23:33:41] Updated database with local data.
[23:33:51] Updated database with local data.
[23:34:01] Updated database with local data.
[23:34:11] Updated database with local data.
[23:34:21] Updated database with local data.
[23:34:31] Updated database with local data.
[23:34:41] Updated database with local data.
[23:34:51] Updated database with local data.
[23:35:02] Updated database with local data.
[23:35:11] Updated database with local data.
[23:35:21] Updated database with local data.
[23:35:31] Updated database with local data.
[23:35:41] Updated database with local data.
[23:35:51] Updated database with local data.
[23:36:01] Updated database with local data.
[23:36:11] Updated database with local data.
[23:36:21] Updated database with local data.
[23:36:31] Updated database with local data.
[23:36:41] Updated database with local data.
[23:36:52] Updated database with local data.
[23:37:01] Updated database with local data.
[23:37:11] Updated database with local data.
[23:37:22] Updated database with local data.
[23:37:31] Updated database with local data.
[23:37:43] Updated database with local data.
[23:37:51] Updated database with local data.
[23:38:01] Updated database with local data.
[23:38:11] Updated database with local data.
[23:38:22] Updated database with local data.
[23:38:31] Updated database with local data.
[23:38:41] Updated database with local data.
[23:38:52] Updated database with local data.
[23:39:01] Updated database with local data.
[23:39:12] Updated database with local data.
[23:39:22] Updated database with local data.
[23:39:32] Updated database with local data.
[23:39:43] Updated database with local data.
[23:39:53] Updated database with local data.
[23:40:02] Updated database with local data.
[23:40:12] Updated database with local data.
[23:40:22] Updated database with local data.
[23:40:32] Updated database with local data.
[23:40:42] Updated database with local data.
[23:40:53] Updated database with local data.
[23:41:02] Updated database with local data.
[23:41:13] Updated database with local data.
[23:41:22] Updated database with local data.
[23:41:32] Updated database with local data.
[23:41:42] Updated database with local data.
[23:41:52] Updated database with local data.
[23:42:05] Updated database with local data.
[23:42:12] Updated database with local data.
[23:42:23] Updated database with local data.
[23:42:32] Updated database with local data.
[23:42:43] Updated database with local data.
[23:42:52] Updated database with local data.
[23:43:03] Updated database with local data.
[23:43:13] Updated database with local data.
[23:43:23] Updated database with local data.
[23:43:32] Updated database with local data.
[23:43:42] Updated database with local data.
[23:43:52] Updated database with local data.
[23:44:02] Updated database with local data.
[23:44:12] Updated database with local data.
[23:44:23] Updated database with local data.
[23:44:32] Updated database with local data.
[23:44:43] Updated database with local data.
[23:44:53] Updated database with local data.
[23:45:03] Updated database with local data.
[23:45:13] Updated database with local data.
[23:45:23] Updated database with local data.
[23:45:33] Updated database with local data.
[23:45:43] Updated database with local data.
[23:45:53] Updated database with local data.
[23:46:03] Updated database with local data.
[23:46:13] Updated database with local data.
[23:46:23] Updated database with local data.
[23:46:33] Updated database with local data.
[23:46:43] Updated database with local data.
[23:46:53] Updated database with local data.
[23:47:03] Updated database with local data.
[23:47:14] Updated database with local data.
[23:47:23] Updated database with local data.
[23:47:33] Updated database with local data.
[23:47:43] Updated database with local data.
[23:47:53] Updated database with local data.
[23:48:05] Updated database with local data.
[23:48:13] Updated database with local data.
[23:48:24] Updated database with local data.
[23:48:34] Updated database with local data.
[23:48:44] Updated database with local data.
[23:48:54] Updated database with local data.
[23:49:04] Updated database with local data.
[23:49:13] Updated database with local data.
[23:49:24] Updated database with local data.
[23:49:34] Updated database with local data.
[23:49:44] Updated database with local data.
[23:49:54] Updated database with local data.
[23:50:04] Updated database with local data.
[23:50:14] Updated database with local data.
[23:50:26] Updated database with local data.
[23:50:34] Updated database with local data.
[23:50:44] Updated database with local data.
[23:50:54] Updated database with local data.
[23:51:04] Updated database with local data.
[23:51:14] Updated database with local data.
[23:51:24] Updated database with local data.
[23:51:34] Updated database with local data.
[23:51:44] Updated database with local data.
[23:51:54] Updated database with local data.
[23:52:05] Updated database with local data.
[23:52:14] Updated database with local data.
[23:52:24] Updated database with local data.
[23:52:34] Updated database with local data.
[23:52:44] Updated database with local data.
[23:52:54] Updated database with local data.
[23:53:04] Updated database with local data.
[23:53:14] Updated database with local data.
[23:53:25] Updated database with local data.
[23:53:34] Updated database with local data.
[23:53:44] Updated database with local data.
[23:53:54] Updated database with local data.
[23:54:04] Updated database with local data.
[23:54:14] Updated database with local data.
[23:54:24] Updated database with local data.
[23:54:34] Updated database with local data.
[23:54:45] Updated database with local data.
[23:54:55] Updated database with local data.
[23:55:05] Updated database with local data.
[23:55:14] Updated database with local data.
[23:55:24] Updated database with local data.
[23:55:34] Updated database with local data.
[23:55:44] Updated database with local data.
[23:55:54] Updated database with local data.
[23:56:04] Updated database with local data.
[23:56:14] Updated database with local data.
[23:56:24] Updated database with local data.
[23:56:34] Updated database with local data.
[23:56:44] Updated database with local data.
[23:56:55] Updated database with local data.
[23:57:04] Updated database with local data.
[23:57:15] Updated database with local data.
[23:57:25] Updated database with local data.
[23:57:36] Updated database with local data.
[23:57:45] Updated database with local data.
[23:57:55] Updated database with local data.
[23:58:05] Updated database with local data.
[23:58:15] Updated database with local data.
[23:58:25] Updated database with local data.
[23:58:35] Updated database with local data.
[23:58:45] Updated database with local data.
[23:58:55] Updated database with local data.
[23:59:05] Updated database with local data.
[23:59:15] Updated database with local data.
[23:59:25] Updated database with local data.
[23:59:35] Updated database with local data.
[23:59:45] Updated database with local data.
[23:59:56] Updated database with local data.
[00:00:06] Updated database with local data.
[00:00:15] Updated database with local data.
[00:00:25] Updated database with local data.
[00:00:35] Updated database with local data.
[00:00:45] Updated database with local data.
[00:00:55] Updated database with local data.
[00:01:05] Updated database with local data.
[00:01:15] Updated database with local data.
[00:01:25] Updated database with local data.
[00:01:35] Updated database with local data.
[00:01:45] Updated database with local data.
[00:01:55] Updated database with local data.
[00:02:05] Updated database with local data.
[00:02:15] Updated database with local data.
[00:02:25] Updated database with local data.
[00:02:35] Updated database with local data.
[00:02:45] Updated database with local data.
[00:02:55] Updated database with local data.
[00:03:05] Updated database with local data.
[00:03:15] Updated database with local data.
[00:03:25] Updated database with local data.
[00:03:35] Updated database with local data.
[00:03:45] Updated database with local data.
[00:03:55] Updated database with local data.
[00:04:05] Updated database with local data.
[00:04:15] Updated database with local data.
[00:04:26] Updated database with local data.
[00:04:35] Updated database with local data.
[00:04:45] Updated database with local data.
[00:04:55] Updated database with local data.
[00:05:06] Updated database with local data.
[00:05:16] Updated database with local data.
[00:05:26] Updated database with local data.
[00:05:36] Updated database with local data.
[00:05:46] Updated database with local data.
[00:05:56] Updated database with local data.
[00:06:06] Updated database with local data.
[00:06:16] Updated database with local data.
[00:06:26] Updated database with local data.
[00:06:36] Updated database with local data.
[00:06:46] Updated database with local data.
[00:06:56] Updated database with local data.
[00:07:06] Updated database with local data.
[00:07:16] Updated database with local data.
[00:07:26] Updated database with local data.
[00:07:36] Updated database with local data.
[00:07:46] Updated database with local data.
[00:07:56] Updated database with local data.
[00:08:06] Updated database with local data.
[00:08:16] Updated database with local data.
[00:08:26] Updated database with local data.
[00:08:36] Updated database with local data.
[00:08:46] Updated database with local data.
[00:08:56] Updated database with local data.
[00:09:06] Updated database with local data.
[00:09:17] Updated database with local data.
[00:09:27] Updated database with local data.
[00:09:37] Updated database with local data.
[00:09:47] Updated database with local data.
[00:09:57] Updated database with local data.
[00:10:07] Updated database with local data.
[00:10:17] Updated database with local data.
[00:10:27] Updated database with local data.
[00:10:37] Updated database with local data.
[00:10:47] Updated database with local data.
[00:10:57] Updated database with local data.
[00:11:07] Updated database with local data.
[00:11:17] Updated database with local data.
[00:11:27] Updated database with local data.
[00:11:37] Updated database with local data.
[00:11:47] Updated database with local data.
[00:11:57] Updated database with local data.
[00:12:07] Updated database with local data.
[00:12:17] Updated database with local data.
[00:12:27] Updated database with local data.
[00:12:37] Updated database with local data.
[00:12:47] Updated database with local data.
[00:12:57] Updated database with local data.
[00:13:08] Updated database with local data.
[00:13:18] Updated database with local data.
[00:13:28] Updated database with local data.
[00:13:38] Updated database with local data.
[00:13:48] Updated database with local data.
[00:13:58] Updated database with local data.
[00:14:08] Updated database with local data.
[00:14:18] Updated database with local data.
[00:14:28] Updated database with local data.
[00:14:38] Updated database with local data.
[00:14:48] Updated database with local data.
[00:14:58] Updated database with local data.
[00:15:08] Updated database with local data.
[00:15:18] Updated database with local data.
[00:15:28] Updated database with local data.
[00:15:38] Updated database with local data.
[00:15:48] Updated database with local data.
[00:15:58] Updated database with local data.
[00:16:08] Updated database with local data.
[00:16:18] Updated database with local data.
[00:16:29] Updated database with local data.
[00:16:39] Updated database with local data.
[00:16:49] Updated database with local data.
[00:16:59] Updated database with local data.
[00:17:09] Updated database with local data.
[00:17:19] Updated database with local data.
[00:17:29] Updated database with local data.
[00:17:39] Updated database with local data.
[00:17:49] Updated database with local data.
[00:17:59] Updated database with local data.
[00:18:09] Updated database with local data.
[00:18:19] Updated database with local data.
[00:18:30] Updated database with local data.
[00:18:39] Updated database with local data.
[00:18:49] Updated database with local data.
[00:18:59] Updated database with local data.
[00:19:09] Updated database with local data.
[00:19:19] Updated database with local data.
[00:19:30] Updated database with local data.
[00:19:39] Updated database with local data.
[00:19:49] Updated database with local data.
[00:19:59] Updated database with local data.
[00:20:09] Updated database with local data.
[00:20:19] Updated database with local data.
[00:20:29] Updated database with local data.
[00:20:39] Updated database with local data.
[00:20:49] Updated database with local data.
[00:20:59] Updated database with local data.
[00:21:09] Updated database with local data.
[00:21:19] Updated database with local data.
[00:21:30] Updated database with local data.
[00:21:39] Updated database with local data.
[00:21:49] Updated database with local data.
[00:22:00] Updated database with local data.
[00:22:10] Updated database with local data.
[00:22:20] Updated database with local data.
[00:22:30] Updated database with local data.
[00:22:40] Updated database with local data.
[00:22:50] Updated database with local data.
[00:23:00] Updated database with local data.
[00:23:10] Updated database with local data.
[00:23:20] Updated database with local data.
[00:23:30] Updated database with local data.
[00:23:40] Updated database with local data.
[00:23:50] Updated database with local data.
[00:24:00] Updated database with local data.
[00:24:10] Updated database with local data.
[00:24:20] Updated database with local data.
[00:24:30] Updated database with local data.
[00:24:40] Updated database with local data.
[00:24:50] Updated database with local data.
[00:25:00] Updated database with local data.
[00:25:10] Updated database with local data.
[00:25:20] Updated database with local data.
[00:25:30] Updated database with local data.
[00:25:40] Updated database with local data.
[00:25:50] Updated database with local data.
[00:26:00] Updated database with local data.
[00:26:10] Updated database with local data.
[00:26:20] Updated database with local data.
[00:26:30] Updated database with local data.
[00:26:40] Updated database with local data.
[00:26:50] Updated database with local data.
[00:27:00] Updated database with local data.
[00:27:10] Updated database with local data.
[00:27:20] Updated database with local data.
[00:27:31] Updated database with local data.
[00:27:40] Updated database with local data.
[00:27:51] Updated database with local data.
[00:28:01] Updated database with local data.
[00:28:11] Updated database with local data.
[00:28:21] Updated database with local data.
[00:28:31] Updated database with local data.
[00:28:41] Updated database with local data.
[00:28:51] Updated database with local data.
[00:29:01] Updated database with local data.
[00:29:11] Updated database with local data.
[00:29:21] Updated database with local data.
[00:29:31] Updated database with local data.
[00:29:41] Updated database with local data.
[00:29:51] Updated database with local data.
[00:30:01] Updated database with local data.
[00:30:11] Updated database with local data.
[00:30:21] Updated database with local data.
[00:30:31] Updated database with local data.
[00:30:41] Updated database with local data.
[00:30:51] Updated database with local data.
[00:31:01] Updated database with local data.
[00:31:11] Updated database with local data.
[00:31:21] Updated database with local data.
[00:31:32] Updated database with local data.
[00:31:41] Updated database with local data.
[00:31:51] Updated database with local data.
[00:32:01] Updated database with local data.
[00:32:11] Updated database with local data.
[00:32:21] Updated database with local data.
[00:32:31] Updated database with local data.
[00:32:41] Updated database with local data.
[00:32:51] Updated database with local data.
[00:33:04] Updated database with local data.
[00:33:11] Updated database with local data.
[00:33:22] Updated database with local data.
[00:33:31] Updated database with local data.
[00:33:41] Updated database with local data.
[00:33:51] Updated database with local data.
[00:34:02] Updated database with local data.
[00:34:11] Updated database with local data.
[00:34:22] Updated database with local data.
[00:34:32] Updated database with local data.
[00:34:42] Updated database with local data.
[00:34:52] Updated database with local data.
[00:35:02] Updated database with local data.
[00:35:12] Updated database with local data.
[00:35:22] Updated database with local data.
[00:35:32] Updated database with local data.
[00:35:42] Updated database with local data.
[00:35:52] Updated database with local data.
[00:36:03] Updated database with local data.
[00:36:12] Updated database with local data.
[00:36:22] Updated database with local data.
[00:36:32] Updated database with local data.
[00:36:42] Updated database with local data.
[00:36:52] Updated database with local data.
[00:37:02] Updated database with local data.
[00:37:13] Updated database with local data.
[00:37:22] Updated database with local data.
[00:37:32] Updated database with local data.
[00:37:42] Updated database with local data.
[00:37:52] Updated database with local data.
[00:38:02] Updated database with local data.
[00:38:12] Updated database with local data.
[00:38:22] Updated database with local data.
[00:38:33] Updated database with local data.
[00:38:42] Disabled Statz!
[00:38:42] Updated database with local data.
