This is a log file of Statz made on 2021-01-01 00:39:09

[00:39:09] Enabled Statz!
[00:39:18] Updated database with local data.
[00:39:28] Updated database with local data.
[00:39:38] Updated database with local data.
[00:39:48] Updated database with local data.
[00:39:59] Updated database with local data.
[00:40:08] Updated database with local data.
[00:40:18] Updated database with local data.
[00:40:28] Updated database with local data.
[00:40:38] Updated database with local data.
[00:40:48] Updated database with local data.
[00:40:58] Updated database with local data.
[00:41:08] Updated database with local data.
[00:41:19] Updated database with local data.
[00:41:28] Updated database with local data.
[00:41:38] Updated database with local data.
[00:41:48] Updated database with local data.
[00:41:59] Updated database with local data.
[00:42:08] Updated database with local data.
[00:42:18] Updated database with local data.
[00:42:29] Updated database with local data.
[00:42:39] Updated database with local data.
[00:42:49] Updated database with local data.
[00:42:59] Updated database with local data.
[00:43:09] Updated database with local data.
[00:43:19] Updated database with local data.
[00:43:29] Updated database with local data.
[00:43:39] Updated database with local data.
[00:43:49] Updated database with local data.
[00:43:59] Updated database with local data.
[00:44:09] Updated database with local data.
[00:44:19] Updated database with local data.
[00:44:29] Updated database with local data.
[00:44:40] Updated database with local data.
[00:44:51] Updated database with local data.
[00:45:00] Updated database with local data.
[00:45:09] Updated database with local data.
[00:45:19] Updated database with local data.
[00:45:30] Updated database with local data.
[00:45:40] Updated database with local data.
[00:45:50] Updated database with local data.
[00:45:59] Updated database with local data.
[00:46:09] Updated database with local data.
[00:46:21] Updated database with local data.
[00:46:29] Updated database with local data.
[00:46:40] Updated database with local data.
[00:46:49] Updated database with local data.
[00:47:00] Updated database with local data.
[00:47:10] Updated database with local data.
[00:47:20] Updated database with local data.
[00:47:30] Updated database with local data.
[00:47:40] Updated database with local data.
[00:47:50] Updated database with local data.
[00:48:00] Updated database with local data.
[00:48:10] Updated database with local data.
[00:48:20] Updated database with local data.
[00:48:30] Updated database with local data.
[00:48:40] Updated database with local data.
[00:48:50] Updated database with local data.
[00:49:00] Updated database with local data.
[00:49:02] Disabled Statz!
[00:49:02] Updated database with local data.
